<svg width="78" height="78" viewBox="0 0 78 78" fill="none" xmlns="http://www.w3.org/2000/svg">
<g clip-path="url(#clip0)">
<path d="M0.00012207 38.9999L0.00012207 72.4285H33.4287V38.9999H11.1431C11.1431 26.7118 21.1407 16.7142 33.4287 16.7142V5.57129C14.9951 5.57129 0.00012207 20.5663 0.00012207 38.9999Z" fill="#C3DCF9"/>
<path d="M78.0001 16.7142V5.57129C59.5665 5.57129 44.5715 20.5663 44.5715 38.9999V72.4285H78.0001V38.9999H55.7144C55.7144 26.7118 65.712 16.7142 78.0001 16.7142Z" fill="#C3DCF9"/>
</g>
<defs>
<clipPath id="clip0">
<rect width="78" height="78" fill="white" transform="translate(0.00012207)"/>
</clipPath>
</defs>
</svg>
