<svg width="178" height="154" viewBox="0 0 178 154" fill="none" xmlns="http://www.w3.org/2000/svg">
<g filter="url(#filter0_d)">
<path d="M4 8C4 3.58173 7.58172 0 12 0H166C170.418 0 174 3.58172 174 8V138C174 142.418 170.418 146 166 146H12C7.58172 146 4 142.418 4 138V8Z" fill="white"/>
</g>
<g clip-path="url(#clip0)">
<path d="M60 27V77.6718H121.771V27H60ZM118.152 30.6194V41.4776H63.6194V30.6194H118.152ZM63.6194 74.0523V45.0971H118.152V74.0523H63.6194Z" fill="#2015E0"/>
<path d="M67.2388 34.2388H70.8582V37.8582H67.2388V34.2388Z" fill="#2015E0"/>
<path d="M74.4776 34.2388H78.0971V37.8582H74.4776V34.2388Z" fill="#2015E0"/>
<path d="M81.7165 34.2388H85.3359V37.8582H81.7165V34.2388Z" fill="#2015E0"/>
<path d="M77.8386 50.6804L68.881 59.6381L77.8386 68.5957L80.3979 66.0364L73.9995 59.6381L80.3979 53.2397L77.8386 50.6804Z" fill="#2015E0"/> 
<path d="M101.365 53.2397L107.763 59.6381L101.365 66.0364L103.924 68.5957L112.882 59.6381L103.924 50.6804L101.365 53.2397Z" fill="#2015E0"/>
<path d="M85.0708 65.4408L93.6029 51.1985L96.7084 53.0589L88.1763 67.3012L85.0708 65.4408Z" fill="#2015E0"/>
</g>
<path d="M37.7628 108.2C38.6308 108.2 39.3821 108.345 40.0168 108.634C40.6608 108.923 41.1555 109.334 41.5008 109.866C41.8461 110.398 42.0188 111.028 42.0188 111.756C42.0188 112.475 41.8461 113.105 41.5008 113.646C41.1555 114.178 40.6608 114.589 40.0168 114.878C39.3821 115.158 38.6308 115.298 37.7628 115.298H35.7888V118H33.5208V108.2H37.7628ZM37.6368 113.45C38.3181 113.45 38.8361 113.305 39.1908 113.016C39.5455 112.717 39.7228 112.297 39.7228 111.756C39.7228 111.205 39.5455 110.785 39.1908 110.496C38.8361 110.197 38.3181 110.048 37.6368 110.048H35.7888V113.45H37.6368ZM50.162 118L48.272 115.27H48.16H46.186V118H43.918V108.2H48.16C49.028 108.2 49.7793 108.345 50.414 108.634C51.058 108.923 51.5526 109.334 51.898 109.866C52.2433 110.398 52.416 111.028 52.416 111.756C52.416 112.484 52.2386 113.114 51.884 113.646C51.5386 114.169 51.044 114.57 50.4 114.85L52.598 118H50.162ZM50.12 111.756C50.12 111.205 49.9426 110.785 49.588 110.496C49.2333 110.197 48.7153 110.048 48.034 110.048H46.186V113.464H48.034C48.7153 113.464 49.2333 113.315 49.588 113.016C49.9426 112.717 50.12 112.297 50.12 111.756ZM59.2389 118.168C58.2216 118.168 57.3022 117.949 56.4809 117.51C55.6689 117.071 55.0296 116.469 54.5629 115.704C54.1056 114.929 53.8769 114.061 53.8769 113.1C53.8769 112.139 54.1056 111.275 54.5629 110.51C55.0296 109.735 55.6689 109.129 56.4809 108.69C57.3022 108.251 58.2216 108.032 59.2389 108.032C60.2562 108.032 61.1709 108.251 61.9829 108.69C62.7949 109.129 63.4342 109.735 63.9009 110.51C64.3676 111.275 64.6009 112.139 64.6009 113.1C64.6009 114.061 64.3676 114.929 63.9009 115.704C63.4342 116.469 62.7949 117.071 61.9829 117.51C61.1709 117.949 60.2562 118.168 59.2389 118.168ZM59.2389 116.236C59.8176 116.236 60.3402 116.105 60.8069 115.844C61.2736 115.573 61.6376 115.2 61.8989 114.724C62.1696 114.248 62.3049 113.707 62.3049 113.1C62.3049 112.493 62.1696 111.952 61.8989 111.476C61.6376 111 61.2736 110.631 60.8069 110.37C60.3402 110.099 59.8176 109.964 59.2389 109.964C58.6602 109.964 58.1376 110.099 57.6709 110.37C57.2042 110.631 56.8356 111 56.5649 111.476C56.3036 111.952 56.1729 112.493 56.1729 113.1C56.1729 113.707 56.3036 114.248 56.5649 114.724C56.8356 115.2 57.2042 115.573 57.6709 115.844C58.1376 116.105 58.6602 116.236 59.2389 116.236ZM73.2074 112.946H75.2794V116.922C74.7474 117.323 74.1314 117.631 73.4314 117.846C72.7314 118.061 72.0267 118.168 71.3174 118.168C70.3001 118.168 69.3854 117.953 68.5734 117.524C67.7614 117.085 67.1221 116.483 66.6554 115.718C66.1981 114.943 65.9694 114.071 65.9694 113.1C65.9694 112.129 66.1981 111.261 66.6554 110.496C67.1221 109.721 67.7661 109.119 68.5874 108.69C69.4087 108.251 70.3327 108.032 71.3594 108.032C72.2181 108.032 72.9974 108.177 73.6974 108.466C74.3974 108.755 74.9854 109.175 75.4614 109.726L74.0054 111.07C73.3054 110.333 72.4607 109.964 71.4714 109.964C70.8461 109.964 70.2907 110.095 69.8054 110.356C69.3201 110.617 68.9421 110.986 68.6714 111.462C68.4007 111.938 68.2654 112.484 68.2654 113.1C68.2654 113.707 68.4007 114.248 68.6714 114.724C68.9421 115.2 69.3154 115.573 69.7914 115.844C70.2767 116.105 70.8274 116.236 71.4434 116.236C72.0967 116.236 72.6847 116.096 73.2074 115.816V112.946ZM83.9102 118L82.0202 115.27H81.9082H79.9342V118H77.6662V108.2H81.9082C82.7762 108.2 83.5275 108.345 84.1622 108.634C84.8062 108.923 85.3008 109.334 85.6462 109.866C85.9915 110.398 86.1642 111.028 86.1642 111.756C86.1642 112.484 85.9868 113.114 85.6322 113.646C85.2868 114.169 84.7922 114.57 84.1482 114.85L86.3462 118H83.9102ZM83.8682 111.756C83.8682 111.205 83.6908 110.785 83.3362 110.496C82.9815 110.197 82.4635 110.048 81.7822 110.048H79.9342V113.464H81.7822C82.4635 113.464 82.9815 113.315 83.3362 113.016C83.6908 112.717 83.8682 112.297 83.8682 111.756ZM94.6951 115.9H90.1451L89.2771 118H86.9531L91.3211 108.2H93.5611L97.9431 118H95.5631L94.6951 115.9ZM93.9811 114.178L92.4271 110.426L90.8731 114.178H93.9811ZM108.158 118L108.144 112.12L105.26 116.964H104.238L101.368 112.246V118H99.2399V108.2H101.116L104.784 114.29L108.396 108.2H110.258L110.286 118H108.158ZM121.809 118L121.795 112.12L118.911 116.964H117.889L115.019 112.246V118H112.891V108.2H114.767L118.435 114.29L122.047 108.2H123.909L123.937 118H121.809ZM126.542 108.2H128.81V118H126.542V108.2ZM140.404 108.2V118H138.542L133.656 112.05V118H131.416V108.2H133.292L138.164 114.15V108.2H140.404ZM149.624 112.946H151.696V116.922C151.164 117.323 150.548 117.631 149.848 117.846C149.148 118.061 148.444 118.168 147.734 118.168C146.717 118.168 145.802 117.953 144.99 117.524C144.178 117.085 143.539 116.483 143.072 115.718C142.615 114.943 142.386 114.071 142.386 113.1C142.386 112.129 142.615 111.261 143.072 110.496C143.539 109.721 144.183 109.119 145.004 108.69C145.826 108.251 146.75 108.032 147.776 108.032C148.635 108.032 149.414 108.177 150.114 108.466C150.814 108.755 151.402 109.175 151.878 109.726L150.422 111.07C149.722 110.333 148.878 109.964 147.888 109.964C147.263 109.964 146.708 110.095 146.222 110.356C145.737 110.617 145.359 110.986 145.088 111.462C144.818 111.938 144.682 112.484 144.682 113.1C144.682 113.707 144.818 114.248 145.088 114.724C145.359 115.2 145.732 115.573 146.208 115.844C146.694 116.105 147.244 116.236 147.86 116.236C148.514 116.236 149.102 116.096 149.624 115.816V112.946Z" fill="#2015E0"/>
<defs>
<filter id="filter0_d" x="0" y="0" width="178" height="154" filterUnits="userSpaceOnUse" color-interpolation-filters="sRGB">
<feFlood flood-opacity="0" result="BackgroundImageFix"/>
<feColorMatrix in="SourceAlpha" type="matrix" values="0 0 0 0 0 0 0 0 0 0 0 0 0 0 0 0 0 0 127 0"/>
<feOffset dy="4"/>
<feGaussianBlur stdDeviation="2"/>
<feColorMatrix type="matrix" values="0 0 0 0 0 0 0 0 0 0 0 0 0 0 0 0 0 0 0.25 0"/>
<feBlend mode="normal" in2="BackgroundImageFix" result="effect1_dropShadow"/>
<feBlend mode="normal" in="SourceGraphic" in2="effect1_dropShadow" result="shape"/>
</filter>
<clipPath id="clip0">
<rect width="61" height="61" fill="white" transform="translate(60 27)"/>
</clipPath>
</defs>
</svg>
