<svg width="20" height="21" viewBox="0 0 20 21" fill="none" xmlns="http://www.w3.org/2000/svg">
<path d="M9.99998 0.155029C4.47715 0.155029 0 4.63217 0 10.155C0 15.6778 4.47715 20.155 9.99998 20.155C15.5228 20.155 20 15.6778 20 10.155C19.9941 4.63464 15.5204 0.160931 9.99998 0.155029ZM10.7143 10.155C10.7143 10.5495 10.3945 10.8693 9.99998 10.8693H4.28571C3.89121 10.8693 3.57141 10.5495 3.57141 10.155C3.57141 9.76051 3.89121 9.44071 4.28571 9.44071H9.28572V4.44074C9.28572 4.04624 9.60552 3.72644 10 3.72644C10.3945 3.72644 10.7143 4.04624 10.7143 4.44074V10.155Z" fill="url(#paint0_linear)"/>
<defs>
<linearGradient id="paint0_linear" x1="9.99998" y1="0.155029" x2="9.99998" y2="20.155" gradientUnits="userSpaceOnUse">
<stop stop-color="#0168B5"/>
<stop offset="1" stop-color="#00D2FF"/>
</linearGradient>
</defs>
</svg>
