<svg width="20" height="20" viewBox="0 0 20 20" fill="none" xmlns="http://www.w3.org/2000/svg">
<path d="M11.8341 14.3072C12.0553 14.1541 12.1875 13.9019 12.1875 13.6328C12.1875 13.1797 11.8203 12.8125 11.3672 12.8125H11.25L8.75 14.375L8.4375 14.0625L14.4934 8.00656C14.6178 7.88219 14.6875 7.71375 14.6875 7.53781C14.6875 7.17188 14.3906 6.875 14.0247 6.875C13.8488 6.875 13.6803 6.94469 13.5559 7.06906L7.5 13.125L10.4309 10.1941C10.5553 10.0697 10.625 9.90125 10.625 9.72531C10.625 9.35938 10.3281 9.0625 9.96219 9.0625C9.78625 9.0625 9.61781 9.13219 9.49344 9.25656L6.5625 12.1875L9.18094 9.56906C9.30531 9.44469 9.375 9.27625 9.375 9.10031C9.375 8.73438 9.07812 8.4375 8.71219 8.4375C8.53625 8.4375 8.36781 8.50719 8.24344 8.63156L5.625 11.25L7.61844 9.25656C7.74281 9.13219 7.8125 8.96375 7.8125 8.78781C7.8125 8.42188 7.51562 8.125 7.14969 8.125C6.97375 8.125 6.80531 8.19469 6.68094 8.31906L4.40625 10.5938C4.18094 10.8191 4.01688 11.0981 3.92938 11.4044L3.57125 12.6575C3.48375 12.9638 3.31969 13.2428 3.09438 13.4681L2.5 14.0625L5.9375 17.5L6.53156 16.9059C6.75687 16.6806 7.03594 16.5166 7.34219 16.4291L8.765 16.0225C8.96219 15.9662 9.14875 15.8778 9.31719 15.7613L11.8341 14.3072Z" fill="white"/>
<path d="M15.6256 11.4278L15.2447 12.8103L13.7047 12.8128L15.0428 13.6922L14.4812 14.9847L15.625 14.0444L16.7687 14.9847L16.2072 13.6922L17.5447 12.8128L16.0128 12.8125L15.6256 11.4278Z" fill="white"/>
<path d="M7.8125 4.6875H17.8125V2.1875H7.8125V4.6875ZM10.9375 2.8125H11.5625V3.4375H10.9375V2.8125ZM9.6875 2.8125H10.3125V3.4375H9.6875V2.8125ZM8.4375 2.8125H9.0625V3.4375H8.4375V2.8125Z" fill="white"/>
<path d="M1.06525 15.3112L1.96468 14.4118L5.58475 18.0318L4.68531 18.9313L1.06525 15.3112Z" fill="white"/>
<path d="M6.5625 0.9375V7.64781C6.7425 7.55469 6.94094 7.5 7.14969 7.5C7.54094 7.5 7.89187 7.67531 8.12844 7.95156C8.30719 7.86062 8.50594 7.8125 8.71219 7.8125C9.18313 7.8125 9.59594 8.06656 9.82063 8.445C9.86719 8.44 9.91469 8.4375 9.96219 8.4375C10.3309 8.4375 10.6637 8.59312 10.8987 8.84219L13.1141 6.62719C13.3572 6.38406 13.6806 6.25 14.0247 6.25C14.7347 6.25 15.3125 6.82781 15.3125 7.53781C15.3125 7.88188 15.1784 8.20531 14.9353 8.44844L11.1966 12.1875H11.3675C12.1641 12.1875 12.8125 12.8359 12.8125 13.6328C12.8125 14.1072 12.5797 14.5513 12.1897 14.8213L12.1687 14.8359L9.65 16.2909C9.47937 16.4062 9.29313 16.4925 9.10031 16.5625H19.0625V0.9375H6.5625ZM7.8125 6.5625H7.1875V5.9375H7.8125V6.5625ZM9.0625 6.5625H8.4375V5.9375H9.0625V6.5625ZM10.3125 6.5625H9.6875V5.9375H10.3125V6.5625ZM7.1875 5.3125V1.5625H18.4375V5.3125H7.1875ZM15.625 9.0625V8.4375H18.4375V9.0625H15.625ZM18.4375 9.6875V10.3125H16.5625V9.6875H18.4375ZM15.625 7.8125V7.1875H18.4375V7.8125H15.625ZM15.625 6.5625V5.9375H18.4375V6.5625H15.625ZM17.6919 15.5409L17.0459 16.0216L15.625 14.8538L14.2041 16.0216L13.5581 15.5409L14.26 13.9253L12.74 12.9262L13.0353 12.1888L14.7684 12.1859L15.1988 10.625H16.0503L16.4872 12.1875L18.2144 12.1881L18.5103 12.9262L16.9903 13.9253L17.6919 15.5409Z" fill="white"/>
</svg>
