<svg width="512" height="512" viewBox="0 0 512 512" fill="none" xmlns="http://www.w3.org/2000/svg">
<path d="M488 416H480V200C479.981 193.641 477.446 187.547 472.95 183.05C468.453 178.554 462.359 176.019 456 176H368V192H456C458.122 192 460.157 192.843 461.657 194.343C463.157 195.843 464 197.878 464 200V416H456V216C456 213.878 455.157 211.843 453.657 210.343C452.157 208.843 450.122 208 448 208H352V224H440V416H72V224H160V208H64C61.8783 208 59.8434 208.843 58.3431 210.343C56.8429 211.843 56 213.878 56 216V416H48V200C48 197.878 48.8429 195.843 50.3431 194.343C51.8434 192.843 53.8783 192 56 192H144V176H56C49.6406 176.019 43.5472 178.554 39.0504 183.05C34.5537 187.547 32.019 193.641 32 200V416H24C21.8783 416 19.8434 416.843 18.3431 418.343C16.8429 419.843 16 421.878 16 424V472C16.019 478.359 18.5537 484.453 23.0504 488.95C27.5472 493.446 33.6406 495.981 40 496H472C478.359 495.981 484.453 493.446 488.95 488.95C493.446 484.453 495.981 478.359 496 472V424C496 421.878 495.157 419.843 493.657 418.343C492.157 416.843 490.122 416 488 416ZM293.76 432L289.76 448H222.24L218.24 432H293.76ZM480 472C480 474.122 479.157 476.157 477.657 477.657C476.157 479.157 474.122 480 472 480H40C37.8783 480 35.8434 479.157 34.3431 477.657C32.8429 476.157 32 474.122 32 472V432H201.76L208.24 457.92C208.669 459.654 209.666 461.195 211.072 462.297C212.479 463.399 214.213 463.999 216 464H296C297.787 463.999 299.521 463.399 300.928 462.297C302.334 461.195 303.331 459.654 303.76 457.92L310.24 432H480V472Z" fill="#2F2F2F"/>
<path d="M376 96H344V88C344 85.8783 343.157 83.8434 341.657 82.3431C340.157 80.8429 338.122 80 336 80H176C173.878 80 171.843 80.8429 170.343 82.3431C168.843 83.8434 168 85.8783 168 88V96H136C133.878 96 131.843 96.8429 130.343 98.3431C128.843 99.8434 128 101.878 128 104V136C128 146.609 132.214 156.783 139.716 164.284C147.217 171.786 157.391 176 168 176C168.037 195.133 174.303 213.734 185.849 228.99C197.396 244.246 213.596 255.328 232 260.56V320H208C201.641 320.019 195.547 322.554 191.05 327.05C186.554 331.547 184.019 337.641 184 344V352H176C173.878 352 171.843 352.843 170.343 354.343C168.843 355.843 168 357.878 168 360V392C168 394.122 168.843 396.157 170.343 397.657C171.843 399.157 173.878 400 176 400H336C338.122 400 340.157 399.157 341.657 397.657C343.157 396.157 344 394.122 344 392V360C344 357.878 343.157 355.843 341.657 354.343C340.157 352.843 338.122 352 336 352H328V344C327.981 337.641 325.446 331.547 320.95 327.05C316.453 322.554 310.359 320.019 304 320H280V260.56C298.404 255.328 314.604 244.246 326.151 228.99C337.697 213.734 343.963 195.133 344 176C349.253 176 354.454 174.965 359.307 172.955C364.16 170.945 368.57 167.999 372.284 164.284C375.999 160.57 378.945 156.16 380.955 151.307C382.965 146.454 384 141.253 384 136V104C384 101.878 383.157 99.8434 381.657 98.3431C380.157 96.8429 378.122 96 376 96ZM168 160C161.641 159.981 155.547 157.446 151.05 152.95C146.554 148.453 144.019 142.359 144 136V112H168V160ZM328 368V384H184V368H328ZM304 336C306.122 336 308.157 336.843 309.657 338.343C311.157 339.843 312 341.878 312 344V352H200V344C200 341.878 200.843 339.843 202.343 338.343C203.843 336.843 205.878 336 208 336H304ZM248 320V263.6C250.64 263.84 253.28 264 256 264C258.72 264 261.36 263.84 264 263.6V320H248ZM328 176C328 195.096 320.414 213.409 306.912 226.912C293.409 240.414 275.096 248 256 248C236.904 248 218.591 240.414 205.088 226.912C191.586 213.409 184 195.096 184 176V96H328V176ZM368 136C367.981 142.359 365.446 148.453 360.95 152.95C356.453 157.446 350.359 159.981 344 160V112H368V136Z" fill="#0F75BC"/>
<path d="M223.144 170.456L216.24 198.056C215.857 199.543 215.911 201.109 216.394 202.567C216.877 204.025 217.77 205.313 218.965 206.277C220.16 207.241 221.608 207.841 223.135 208.004C224.662 208.168 226.203 207.889 227.576 207.2L256 192.944L284.424 207.2C285.793 207.884 287.33 208.162 288.852 207.999C290.374 207.836 291.817 207.24 293.01 206.282C294.204 205.323 295.097 204.043 295.584 202.592C296.072 201.141 296.133 199.581 295.76 198.096L288.856 170.496L309.656 149.696C310.788 148.579 311.562 147.151 311.879 145.592C312.195 144.034 312.04 142.416 311.433 140.946C310.826 139.476 309.795 138.221 308.471 137.34C307.147 136.459 305.59 135.992 304 136H276.944L263.2 108.424C262.461 107.184 261.412 106.158 260.157 105.445C258.902 104.732 257.483 104.357 256.04 104.357C254.597 104.357 253.178 104.732 251.923 105.445C250.668 106.158 249.619 107.184 248.88 108.424L235.056 136H208C206.418 136 204.872 136.47 203.556 137.349C202.241 138.228 201.216 139.477 200.611 140.939C200.005 142.4 199.847 144.009 200.155 145.56C200.464 147.112 201.226 148.537 202.344 149.656L223.144 170.456ZM240 152C241.487 152.001 242.944 151.587 244.209 150.806C245.474 150.024 246.495 148.906 247.16 147.576L256 129.888L264.8 147.576C265.468 148.912 266.496 150.034 267.768 150.816C269.041 151.598 270.507 152.008 272 152H284.688L274.344 162.344C273.367 163.321 272.659 164.535 272.29 165.867C271.922 167.199 271.904 168.603 272.24 169.944L276.024 185.064L259.576 176.84C258.466 176.285 257.241 175.996 256 175.996C254.759 175.996 253.534 176.285 252.424 176.84L236 185.064L239.784 169.944C240.12 168.603 240.102 167.199 239.733 165.867C239.365 164.535 238.657 163.321 237.68 162.344L227.312 152H240Z" fill="#0F75BC"/>
<path d="M24 80.0002H40V104H56V72.0002C56 69.8785 55.1571 67.8437 53.6569 66.3434C52.1566 64.8431 50.1217 64.0002 48 64.0002H43.312L72 35.3122L100.688 64.0002H96C93.8783 64.0002 91.8434 64.8431 90.3432 66.3434C88.8429 67.8437 88 69.8785 88 72.0002V152H104V80.0002H120C121.582 79.9999 123.128 79.5305 124.444 78.6515C125.759 77.7724 126.784 76.5231 127.389 75.0615C127.995 73.5999 128.153 71.9916 127.845 70.44C127.536 68.8884 126.774 67.4631 125.656 66.3442L77.656 18.3442C76.1558 16.8445 74.1213 16.002 72 16.002C69.8787 16.002 67.8442 16.8445 66.344 18.3442L18.344 66.3442C17.2255 67.4631 16.4639 68.8884 16.1553 70.44C15.8468 71.9916 16.0052 73.5999 16.6106 75.0615C17.2159 76.5231 18.2411 77.7724 19.5563 78.6515C20.8716 79.5305 22.418 79.9999 24 80.0002Z" fill="#2F2F2F"/>
<path d="M56 120H40V136H56V120Z" fill="#2F2F2F"/>
<path d="M384 80.0002H400V152H416V72.0002C416 69.8785 415.157 67.8437 413.657 66.3434C412.157 64.8431 410.122 64.0002 408 64.0002H403.312L432 35.3122L460.688 64.0002H456C453.878 64.0002 451.843 64.8431 450.343 66.3434C448.843 67.8437 448 69.8785 448 72.0002V104H464V80.0002H480C481.582 79.9999 483.128 79.5305 484.444 78.6515C485.759 77.7724 486.784 76.5231 487.389 75.0615C487.995 73.5999 488.153 71.9916 487.845 70.44C487.536 68.8884 486.774 67.4631 485.656 66.3442L437.656 18.3442C436.156 16.8445 434.121 16.002 432 16.002C429.879 16.002 427.844 16.8445 426.344 18.3442L378.344 66.3442C377.226 67.4631 376.464 68.8884 376.155 70.44C375.847 71.9916 376.005 73.5999 376.611 75.0615C377.216 76.5231 378.241 77.7724 379.556 78.6515C380.872 79.5305 382.418 79.9999 384 80.0002Z" fill="#2F2F2F"/>
<path d="M464 120H448V136H464V120Z" fill="#2F2F2F"/>
</svg>
