<svg width="20" height="20" viewBox="0 0 20 20" fill="none" xmlns="http://www.w3.org/2000/svg">
<g clip-path="url(#clip0)">
<path d="M12.0189 14.9281C11.7456 14.9281 11.4762 14.8807 11.218 14.7871L10.0077 14.3478L8.79794 14.7894C8.53874 14.8839 8.26797 14.9319 7.99313 14.9319C7.15944 14.9319 6.38188 14.4831 5.9639 13.7607L5.95604 13.7471L5.95999 18.8268C5.95999 19.2647 6.20105 19.6629 6.58909 19.8659C6.76069 19.9556 6.94722 20 7.13305 20C7.36747 20 7.60072 19.9294 7.8014 19.7901L9.98621 18.2734L12.171 19.7901C12.5307 20.0398 12.9953 20.0689 13.3833 19.8659C13.7713 19.6629 14.0124 19.2647 14.0124 18.8268V13.8167C13.5867 14.5041 12.8297 14.9281 12.0189 14.9281Z" fill="white"/>
<path d="M16.5465 5.13023L15.2322 4.02944L14.933 2.3413C14.8335 1.78021 14.348 1.37334 13.7784 1.37334C13.778 1.37334 13.7776 1.37334 13.7772 1.37334L12.0628 1.37486L10.7485 0.27419C10.3114 -0.0919181 9.6774 -0.0913708 9.24093 0.275558L7.92863 1.37873L6.21423 1.38033C5.64407 1.38088 5.15874 1.78885 5.06028 2.35041L4.7641 4.03905L3.4518 5.14226C3.01537 5.50916 2.90584 6.1336 3.19139 6.6271L4.04994 8.11108L3.7538 9.79965C3.65526 10.3612 3.97278 10.91 4.50877 11.1046L6.12033 11.6894L6.97889 13.1734C7.1938 13.5448 7.58453 13.7592 7.99309 13.7592C8.12732 13.7592 8.26351 13.736 8.39602 13.6877L10.0065 13.0999L11.6181 13.6848C12.154 13.8791 12.7496 13.6618 13.0342 13.1678L13.8901 11.6823L15.5006 11.0945C16.0361 10.899 16.3526 10.3496 16.2531 9.7882L15.9539 8.1001L16.8097 6.61456C17.0943 6.12055 16.9836 5.49629 16.5465 5.13023ZM9.99989 10.4089C8.13553 10.4089 6.61876 8.89208 6.61876 7.02773C6.61876 5.16337 8.13553 3.6466 9.99989 3.6466C11.8642 3.6466 13.3811 5.16337 13.3811 7.02773C13.3811 8.89208 11.8642 10.4089 9.99989 10.4089Z" fill="white"/>
<path d="M12.0445 7.87461C12.5116 6.74761 11.9767 5.4553 10.8497 4.98815C9.72273 4.52101 8.43042 5.05593 7.96327 6.18293C7.49613 7.30993 8.03105 8.60224 9.15805 9.06938C10.285 9.53652 11.5774 9.0016 12.0445 7.87461Z" fill="white"/>
</g>
<defs>
<clipPath id="clip0">
<rect width="20" height="20" fill="white"/>
</clipPath>
</defs>
</svg>
