<svg width="10" height="10" viewBox="0 0 10 10" fill="none" xmlns="http://www.w3.org/2000/svg">
<path d="M7.47187 4.55813C7.42124 4.44625 7.30999 4.375 7.18749 4.375H5.93749V0.3125C5.93749 0.14 5.79749 0 5.62499 0H4.37499C4.20249 0 4.06249 0.14 4.06249 0.3125V4.375H2.81249C2.68999 4.375 2.57874 4.44688 2.52812 4.55813C2.47687 4.67 2.49687 4.80062 2.57749 4.89313L4.76499 7.39313C4.82437 7.46125 4.90999 7.5 4.99999 7.5C5.08999 7.5 5.17562 7.46063 5.23499 7.39313L7.42249 4.89313C7.50374 4.80125 7.52249 4.67 7.47187 4.55813Z" fill="#2073D4"/>
<path d="M8.4375 6.875V8.75H1.5625V6.875H0.3125V9.375C0.3125 9.72062 0.5925 10 0.9375 10H9.0625C9.40812 10 9.6875 9.72062 9.6875 9.375V6.875H8.4375Z" fill="#2073D4"/>
</svg>
