<svg width="142" height="182" viewBox="0 0 142 182" fill="none" xmlns="http://www.w3.org/2000/svg">
<g clip-path="url(#clip0)">
<path d="M85.5182 177.73H0V177.031H85.6449L85.5182 177.73Z" fill="#3F3D56"/>
<path d="M29.5481 167.603L24.571 167.935L25.2347 115.842H37.5113L29.5481 167.603Z" fill="#FFEFC5"/>
<path d="M53.4378 167.603L48.4608 167.935L49.1244 115.842L57.0644 115.844L53.4378 167.603Z" fill="#FFEFC5"/>
<path d="M58.7466 161.962C53.5368 164.338 48.6399 164.217 43.9787 162.215L41.4929 102.57L34.3729 161.693C29.1666 162.981 23.9044 162.975 18.5985 161.962C19.8206 153.106 25.0375 99.1867 24.571 89.2974L59.4103 87.6384L58.7466 161.962Z" fill="#2F2E41"/>
<path d="M28.6579 181.254C27.9718 181.254 27.2929 181.113 26.663 180.842C26.0331 180.57 25.4654 180.172 24.9948 179.673C24.5242 179.173 24.1606 178.583 23.9264 177.938C23.6922 177.293 23.5923 176.607 23.6328 175.922L24.113 167.809C26.0465 164.343 28.3933 164.329 31.1284 167.559L33.4438 174.659C33.6902 175.415 33.7542 176.218 33.6305 177.003C33.5067 177.789 33.1989 178.533 32.732 179.177C32.2651 179.82 31.6526 180.343 30.9444 180.704C30.2363 181.065 29.4528 181.254 28.6579 181.254Z" fill="#2F2E41"/>
<path d="M52.2159 181.254C51.5298 181.254 50.8509 181.113 50.221 180.842C49.591 180.57 49.0233 180.172 48.5527 179.673C48.0821 179.173 47.7186 178.583 47.4844 177.938C47.2502 177.293 47.1503 176.607 47.1908 175.922L47.671 167.809C49.6044 164.343 51.9512 164.329 54.6863 167.559L57.0017 174.659C57.2482 175.415 57.3121 176.218 57.1884 177.003C57.0647 177.789 56.7568 178.533 56.2899 179.177C55.8231 179.82 55.2105 180.343 54.5024 180.704C53.7943 181.065 53.0107 181.254 52.2159 181.254Z" fill="#2F2E41"/>
<path d="M45.4744 23.2686C50.7887 23.2686 55.0967 18.9606 55.0967 13.6463C55.0967 8.33206 50.7887 4.02402 45.4744 4.02402C40.1602 4.02402 35.8522 8.33206 35.8522 13.6463C35.8522 18.9606 40.1602 23.2686 45.4744 23.2686Z" fill="#FFEFC5"/>
<path d="M45.1427 31.8955L29.548 25.5912C33.2801 23.7619 35.8141 20.3622 37.843 16.3007H44.8109C44.4785 22.4981 44.2109 28.5495 45.1427 31.8955Z" fill="#FFEFC5"/>
<path d="M60.4056 89.9611L23.2437 90.9565C23.6963 73.1123 22.9024 54.7513 21.0394 35.9471C20.8305 33.8273 21.3277 31.6979 22.4538 29.8898C23.5799 28.0818 25.2718 26.6964 27.2665 25.9491L30.8752 24.5958L45.4745 28.5774L52.3647 33.8599C53.2878 34.57 54.0208 35.4976 54.4981 36.5599C54.9754 37.6222 55.1822 38.7862 55.1001 39.9479C54.057 55.1814 56.3861 72.1391 60.4056 89.9611Z" fill="#FF7B0D"/>
<path d="M64.5489 102.529C63.5596 102.586 62.586 102.262 61.8288 101.622C61.0716 100.983 60.5885 100.078 60.4791 99.0928L59.6577 91.6961L64.0478 90.4731L67.6726 96.7246C68.0041 97.2964 68.1837 97.9435 68.1941 98.6043C68.2046 99.2651 68.0457 99.9175 67.7325 100.499C67.4193 101.081 66.9623 101.573 66.405 101.929C65.8477 102.284 65.2087 102.491 64.5489 102.529Z" fill="#FFEFC5"/>
<path d="M68.3688 92.2837L59.7419 92.6155L53.1059 66.0712L51.4469 33.2227C52.9653 33.4125 54.3773 34.1025 55.4601 35.1837C56.5429 36.265 57.2349 37.676 57.4268 39.1942L60.4055 62.7532L68.3688 92.2837Z" fill="#FF7B0D"/>
<path opacity="0.2" d="M27.3914 43.011L27.0596 64.91L41.6589 89.4635L28.7186 64.2464L27.3914 43.011Z" fill="black"/>
<path opacity="0.2" d="M22.9863 76.0868L31.6394 90.9565L28.5729 90.7906L22.9863 76.0868Z" fill="black"/>
<path d="M43.0294 73.1932C42.6257 73.1937 42.2387 73.3542 41.9532 73.6397C41.6678 73.9251 41.5072 74.3122 41.5067 74.7158V169.119C41.5072 169.523 41.6678 169.91 41.9532 170.195C42.2387 170.481 42.6257 170.641 43.0294 170.642H140.477C140.881 170.641 141.268 170.481 141.554 170.195C141.839 169.91 142 169.523 142 169.119V74.7158C142 74.3121 141.839 73.9251 141.554 73.6397C141.268 73.3542 140.881 73.1937 140.477 73.1932L43.0294 73.1932Z" fill="#E6E6E6"/>
<path d="M45.3224 166.826H138.184V77.0089H45.3224V166.826Z" fill="white"/>
<path d="M53.5932 91.318C52.9737 91.318 52.4696 92.206 52.4696 93.2974C52.4696 94.3888 52.9737 95.2768 53.5932 95.2768H95.9462C96.5658 95.2768 97.0699 94.3888 97.0699 93.2974C97.0699 92.206 96.5658 91.318 95.9462 91.318H53.5932Z" fill="#E6E6E6"/>
<path d="M53.5932 103.499C52.9737 103.499 52.4696 104.387 52.4696 105.478C52.4696 106.57 52.9737 107.458 53.5932 107.458H95.9462C96.5658 107.458 97.0699 106.57 97.0699 105.478C97.0699 104.387 96.5658 103.499 95.9462 103.499H53.5932Z" fill="#E6E6E6"/>
<path d="M53.5932 115.54C52.9737 115.54 52.4696 116.428 52.4696 117.519C52.4696 118.611 52.9737 119.499 53.5932 119.499H95.9462C96.5658 119.499 97.0699 118.611 97.0699 117.519C97.0699 116.428 96.5658 115.54 95.9462 115.54H53.5932Z" fill="#E6E6E6"/>
<path d="M53.5932 127.721C52.9737 127.721 52.4696 128.609 52.4696 129.7C52.4696 130.791 52.9737 131.679 53.5932 131.679H95.9462C96.5658 131.679 97.0699 130.791 97.0699 129.7C97.0699 128.609 96.5658 127.721 95.9462 127.721H53.5932Z" fill="#E6E6E6"/>
<path d="M117.403 91.4482C116.878 91.4482 116.375 91.6568 116.004 92.028C115.632 92.3992 115.424 92.9027 115.424 93.4276C115.424 93.9526 115.632 94.4561 116.004 94.8273C116.375 95.1985 116.878 95.4071 117.403 95.4071H125.321C125.846 95.4071 126.349 95.1985 126.721 94.8273C127.092 94.4561 127.3 93.9526 127.3 93.4276C127.3 92.9027 127.092 92.3992 126.721 92.028C126.349 91.6568 125.846 91.4482 125.321 91.4482H117.403Z" fill="#E6E6E6"/>
<path d="M117.403 103.393C116.878 103.393 116.375 103.602 116.004 103.973C115.632 104.344 115.424 104.848 115.424 105.373C115.424 105.898 115.632 106.401 116.004 106.772C116.375 107.143 116.878 107.352 117.403 107.352H125.321C125.846 107.352 126.349 107.143 126.721 106.772C127.092 106.401 127.3 105.898 127.3 105.373C127.3 104.848 127.092 104.344 126.721 103.973C126.349 103.602 125.846 103.393 125.321 103.393H117.403Z" fill="#E6E6E6"/>
<path d="M117.403 115.338C116.878 115.338 116.375 115.547 116.004 115.918C115.632 116.289 115.424 116.792 115.424 117.317C115.424 117.842 115.632 118.346 116.004 118.717C116.375 119.088 116.878 119.297 117.403 119.297H125.321C125.846 119.297 126.349 119.088 126.721 118.717C127.092 118.346 127.3 117.842 127.3 117.317C127.3 116.792 127.092 116.289 126.721 115.918C126.349 115.547 125.846 115.338 125.321 115.338H117.403Z" fill="#E6E6E6"/>
<path d="M117.403 127.283C116.878 127.283 116.375 127.492 116.004 127.863C115.632 128.234 115.424 128.738 115.424 129.262C115.424 129.787 115.632 130.291 116.004 130.662C116.375 131.033 116.878 131.242 117.403 131.242H125.321C125.846 131.242 126.349 131.033 126.721 130.662C127.092 130.291 127.3 129.787 127.3 129.262C127.3 128.738 127.092 128.234 126.721 127.863C126.349 127.492 125.846 127.283 125.321 127.283H117.403Z" fill="#E6E6E6"/>
<path d="M114.991 147.312C114.322 147.312 113.68 147.578 113.207 148.051C112.734 148.524 112.468 149.165 112.468 149.834C112.468 150.503 112.734 151.145 113.207 151.618C113.68 152.091 114.322 152.356 114.991 152.356H125.079C125.748 152.356 126.39 152.091 126.863 151.618C127.336 151.145 127.602 150.503 127.602 149.834C127.602 149.165 127.336 148.524 126.863 148.051C126.39 147.578 125.748 147.312 125.079 147.312H114.991Z" fill="#FF7B0D"/>
<path d="M127.264 140.561H52.6082V141.225H127.264V140.561Z" fill="#E6E6E6"/>
<path d="M43.9301 100.894C43.0387 101.327 42.0152 101.402 41.0705 101.102C40.1258 100.803 39.332 100.152 38.8527 99.2851L35.2531 92.7715L38.8365 89.9559L44.5846 94.3355C45.1103 94.736 45.5246 95.2645 45.7881 95.8706C46.0516 96.4766 46.1555 97.1401 46.0899 97.7977C46.0243 98.4553 45.7913 99.0852 45.4132 99.6272C45.0351 100.169 44.5245 100.605 43.9301 100.894Z" fill="#FFEFC5"/>
<path d="M41.4929 90.2929L34.1932 94.2745L17.6031 65.7394L15.6912 40.6464C15.4767 37.8309 16.1772 35.0214 17.6886 32.6362C19.1999 30.251 21.4411 28.4177 24.0786 27.4092L26.2299 26.5866L27.5571 64.4122L41.4929 90.2929Z" fill="#FF7B0D"/>
<path d="M53.6393 3.08531L53.7463 4.6898L52.9201 2.48674C50.8424 0.976434 48.359 0.124867 45.7917 0.0423623L45.7917 0.0423421C44.2665 -0.109599 42.7272 0.111689 41.3066 0.687125C39.8859 1.26256 38.6266 2.17488 37.6371 3.34542C36.6476 4.51596 35.9576 5.90961 35.6266 7.4062C35.2957 8.90279 35.3337 10.4574 35.7374 11.936L35.8522 13.3145L38.5066 9.66466H38.5067C39.7021 8.58074 41.1581 7.82533 42.7326 7.47218C44.3072 7.11903 45.9464 7.18022 47.4902 7.64976C48.65 8.00368 49.7653 8.48967 50.8142 9.09816C52.4148 10.0567 53.8591 11.2549 55.0968 12.6509L55.3274 11.0829C56.8771 8.16768 55.9546 5.20827 53.6393 3.08531Z" fill="#2F2E41"/>
</g>
<defs>
<clipPath id="clip0">
<rect width="142" height="181.254" fill="white"/>
</clipPath>
</defs>
</svg>
