<svg width="300" height="184" viewBox="0 0 300 184" fill="none" xmlns="http://www.w3.org/2000/svg">
<g clip-path="url(#clip0)">
<path opacity="0.1" d="M300 108.91C300.016 117.589 297.647 126.105 293.151 133.529C293.151 142.608 288.918 150.837 282.053 156.834C280.334 158.333 278.484 159.674 276.525 160.841C276.446 160.891 276.365 160.938 276.283 160.985C276.137 161.072 275.99 161.158 275.84 161.247L275.701 161.329C269.201 164.949 261.875 166.828 254.434 166.783H56.9503C55.3769 166.783 53.8174 166.72 52.272 166.594C46.7798 166.162 41.383 164.912 36.2597 162.886C35.2597 162.491 34.279 162.066 33.3174 161.612C32.8594 161.397 32.4057 161.176 31.9564 160.948C31.6758 160.807 31.3952 160.66 31.1172 160.513C27.8865 158.811 24.8555 156.753 22.0805 154.379C13.1644 146.714 7.63646 136.125 7.63646 124.429C2.63492 116.728 -0.0183239 107.737 9.52529e-05 98.5542C9.52529e-05 72.5559 20.7798 51.4799 46.4162 51.4799C47.2029 51.4799 47.9896 51.5035 48.7763 51.5454C48.8891 51.5454 48.9992 51.5454 49.112 51.5612C53.4337 44.1949 59.2108 37.4266 66.1575 31.4685C85.1015 15.236 112.789 5.00348 143.63 5.00348C169.545 5.00348 193.233 12.2281 211.377 24.1652C218.252 20.2785 226.018 18.2411 233.916 18.2517C259.547 18.2517 280.332 39.3278 280.332 65.326C280.329 66.971 280.241 68.6148 280.07 70.2509C286.249 74.6245 291.284 80.4199 294.753 87.1481C298.222 93.8764 300.021 101.34 300 108.91Z" fill="#EE6C00"/>
<g opacity="0.2">
<path opacity="0.2" d="M36.2859 162.532C36.2859 162.653 36.2728 162.771 36.2597 162.886C35.2597 162.491 34.2789 162.066 33.3174 161.612C32.8037 161.544 32.326 161.311 31.9563 160.948C31.6758 160.807 31.3952 160.66 31.1172 160.513C31.1801 160.381 31.2511 160.253 31.3296 160.13C31.8698 159.275 32.6906 158.74 33.5953 158.769C34.5001 158.798 35.2841 159.383 35.7693 160.267C36.1403 160.962 36.3187 161.745 36.2859 162.532Z" fill="#3F3D56"/>
<path opacity="0.2" d="M36.4278 158.043C36.4099 158.829 36.1827 159.597 35.7695 160.267C35.2293 161.119 34.4085 161.654 33.5038 161.625L33.3176 161.612C32.804 161.544 32.3262 161.311 31.9566 160.948C31.706 160.71 31.4944 160.434 31.3299 160.13C30.968 159.432 30.791 158.653 30.8158 157.867C30.8406 157.081 31.0663 156.315 31.4715 155.641C32.0117 154.786 32.8325 154.251 33.7372 154.28C34.6419 154.309 35.426 154.893 35.9111 155.777C36.2822 156.473 36.4605 157.255 36.4278 158.043Z" fill="#3F3D56"/>
<path opacity="0.2" d="M36.5703 153.561C36.6344 151.533 35.4308 149.849 33.8818 149.801C32.3329 149.752 31.0253 151.356 30.9613 153.384C30.8972 155.412 32.1009 157.096 33.6498 157.145C35.1987 157.194 36.5062 155.589 36.5703 153.561Z" fill="#3F3D56"/>
<path opacity="0.2" d="M36.7105 149.072C36.7746 147.044 35.5709 145.36 34.022 145.311C32.4731 145.262 31.1655 146.866 31.1014 148.894C31.0373 150.922 32.241 152.606 33.7899 152.655C35.3388 152.704 36.6464 151.1 36.7105 149.072Z" fill="#3F3D56"/>
<path opacity="0.2" d="M36.8744 144.286C36.9353 142.257 35.7284 140.574 34.1787 140.528C32.629 140.481 31.3234 142.088 31.2626 144.118C31.2017 146.147 32.4086 147.829 33.9583 147.876C35.5079 147.922 36.8136 146.315 36.8744 144.286Z" fill="#3F3D56"/>
<path opacity="0.2" d="M24.5115 113.431C24.1422 112.931 23.8092 112.405 23.515 111.858L30.9259 110.879L22.9486 110.688C22.2367 108.999 21.8768 107.183 21.8907 105.351C21.9047 103.518 22.2923 101.708 23.0299 100.031L33.5509 105.918L23.9136 98.3523C24.8858 96.7799 26.1718 95.4248 27.6912 94.3717C29.2107 93.3186 30.9309 92.5901 32.7445 92.2317C34.5582 91.8733 36.4262 91.8927 38.232 92.2887C40.0378 92.6847 41.7425 93.4487 43.2397 94.5332C44.737 95.6176 45.9945 96.9991 46.9338 98.5913C47.8732 100.184 48.4741 101.952 48.6991 103.787C48.9241 105.622 48.7684 107.484 48.2416 109.256C47.7148 111.028 46.8283 112.673 45.6374 114.087C46.2113 114.865 46.6992 115.703 47.0928 116.586L37.3664 121.256L47.6802 118.154C48.3298 120.297 48.4344 122.568 47.9848 124.762C47.5351 126.956 46.5453 129.003 45.1051 130.718C46.6025 132.749 47.4979 135.161 47.689 137.678C47.8801 140.195 47.3592 142.714 46.1857 144.949C45.0122 147.183 43.2336 149.042 41.0533 150.313C38.873 151.585 36.3789 152.217 33.8563 152.137C31.3337 152.058 28.8844 151.27 26.7885 149.864C24.6926 148.458 23.0346 146.49 22.0042 144.186C20.9739 141.882 20.6127 139.335 20.9619 136.835C21.3112 134.336 22.3568 131.985 23.9792 130.052C22.1902 127.624 21.2693 124.665 21.3644 121.65C21.4596 118.636 22.5652 115.741 24.5037 113.431H24.5115Z" fill="#EE6C00"/>
<path opacity="0.1" d="M48.2519 122.499C48.1589 125.515 47.05 128.411 45.1051 130.718C46.6025 132.749 47.4979 135.161 47.689 137.678C47.8801 140.195 47.3592 142.714 46.1857 144.949C45.0122 147.183 43.2336 149.042 41.0533 150.313C38.873 151.585 36.3789 152.217 33.8563 152.137C31.3337 152.058 28.8844 151.27 26.7885 149.864C24.6926 148.458 23.0346 146.49 22.0042 144.186C20.9739 141.882 20.6127 139.335 20.9619 136.835C21.3112 134.336 22.3568 131.985 23.9792 130.052C22.2563 127.71 48.2991 120.989 48.2519 122.499Z" fill="black"/>
</g>
<path d="M251.224 36.2963V161.955C251.224 163.236 250.715 164.464 249.81 165.369C248.904 166.275 247.677 166.783 246.396 166.783H53.6042C53.1534 166.784 52.7049 166.72 52.272 166.594C51.2642 166.306 50.3777 165.698 49.7469 164.861C49.1161 164.024 48.7754 163.004 48.7764 161.955V105.879C48.7764 105.593 48.7764 105.309 48.7764 105.026V51.5455C48.8891 51.5455 48.9993 51.5455 49.112 51.5612C53.4337 44.1949 59.2108 37.4266 66.1575 31.4685H246.396C247.677 31.4685 248.904 31.9772 249.81 32.8826C250.715 33.788 251.224 35.0159 251.224 36.2963Z" fill="white"/>
<path d="M218.187 47.7876H191.473C188.869 47.7876 186.758 49.8986 186.758 52.5026C186.758 55.1067 188.869 57.2177 191.473 57.2177H218.187C220.791 57.2177 222.902 55.1067 222.902 52.5026C222.902 49.8986 220.791 47.7876 218.187 47.7876Z" fill="#3F3D56"/>
<path opacity="0.1" d="M217.406 49.3636H192.252C190.518 49.3636 189.113 50.7684 189.113 52.5013C189.113 54.2342 190.518 55.639 192.252 55.639H217.406C219.139 55.639 220.545 54.2342 220.545 52.5013C220.545 50.7684 219.139 49.3636 217.406 49.3636Z" fill="black"/>
<path d="M216.965 49.7072H211.201C209.659 49.7072 208.408 50.9576 208.408 52.5V52.5026C208.408 54.0451 209.659 55.2955 211.201 55.2955H216.965C218.507 55.2955 219.758 54.0451 219.758 52.5026V52.5C219.758 50.9576 218.507 49.7072 216.965 49.7072Z" fill="#EE6C00"/>
<path d="M213.996 54.2492C214.961 54.2492 215.743 53.4672 215.743 52.5026C215.743 51.5381 214.961 50.7561 213.996 50.7561C213.032 50.7561 212.25 51.5381 212.25 52.5026C212.25 53.4672 213.032 54.2492 213.996 54.2492Z" fill="white"/>
<path d="M218.187 109.951H191.473C188.869 109.951 186.758 112.062 186.758 114.666C186.758 117.27 188.869 119.381 191.473 119.381H218.187C220.791 119.381 222.902 117.27 222.902 114.666C222.902 112.062 220.791 109.951 218.187 109.951Z" fill="#3F3D56"/>
<path opacity="0.1" d="M217.406 111.527H192.252C190.518 111.527 189.113 112.932 189.113 114.665C189.113 116.398 190.518 117.802 192.252 117.802H217.406C219.139 117.802 220.545 116.398 220.545 114.665C220.545 112.932 219.139 111.527 217.406 111.527Z" fill="black"/>
<path d="M216.965 111.871H211.201C209.659 111.871 208.408 113.121 208.408 114.663V114.666C208.408 116.209 209.659 117.459 211.201 117.459H216.965C218.507 117.459 219.758 116.209 219.758 114.666V114.663C219.758 113.121 218.507 111.871 216.965 111.871Z" fill="#EE6C00"/>
<path d="M213.996 116.413C214.961 116.413 215.743 115.631 215.743 114.666C215.743 113.702 214.961 112.92 213.996 112.92C213.032 112.92 212.25 113.702 212.25 114.666C212.25 115.631 213.032 116.413 213.996 116.413Z" fill="white"/>
<path d="M218.187 141.031H191.473C188.869 141.031 186.758 143.142 186.758 145.747C186.758 148.351 188.869 150.462 191.473 150.462H218.187C220.791 150.462 222.902 148.351 222.902 145.747C222.902 143.142 220.791 141.031 218.187 141.031Z" fill="#3F3D56"/>
<path opacity="0.1" d="M217.406 142.61H192.252C190.518 142.61 189.113 144.015 189.113 145.748C189.113 147.481 190.518 148.885 192.252 148.885H217.406C219.139 148.885 220.545 147.481 220.545 145.748C220.545 144.015 219.139 142.61 217.406 142.61Z" fill="black"/>
<path d="M216.965 142.954H211.201C209.659 142.954 208.408 144.204 208.408 145.747V145.749C208.408 147.292 209.659 148.542 211.201 148.542H216.965C218.507 148.542 219.758 147.292 219.758 145.749V145.747C219.758 144.204 218.507 142.954 216.965 142.954Z" fill="#EE6C00"/>
<path d="M213.996 147.493C214.961 147.493 215.743 146.711 215.743 145.747C215.743 144.782 214.961 144 213.996 144C213.032 144 212.25 144.782 212.25 145.747C212.25 146.711 213.032 147.493 213.996 147.493Z" fill="white"/>
<path d="M95.4333 41.8506H79.8905C78.348 41.8506 77.0977 43.101 77.0977 44.6434V44.646C77.0977 46.1884 78.348 47.4388 79.8905 47.4388H95.4333C96.9758 47.4388 98.2262 46.1884 98.2262 44.646V44.6434C98.2262 43.101 96.9758 41.8506 95.4333 41.8506Z" fill="#EE6C00"/>
<path d="M132.975 49.7072H79.8905C78.348 49.7072 77.0977 50.9576 77.0977 52.5V52.5026C77.0977 54.0451 78.348 55.2955 79.8905 55.2955H132.975C134.518 55.2955 135.768 54.0451 135.768 52.5026V52.5C135.768 50.9576 134.518 49.7072 132.975 49.7072Z" fill="#EE6C00"/>
<path d="M132.975 57.5664H79.8905C78.348 57.5664 77.0977 58.8168 77.0977 60.3593V60.3619C77.0977 61.9043 78.348 63.1547 79.8905 63.1547H132.975C134.518 63.1547 135.768 61.9043 135.768 60.3619V60.3593C135.768 58.8168 134.518 57.5664 132.975 57.5664Z" fill="#EE6C00"/>
<g opacity="0.5">
<path opacity="0.5" d="M95.4333 72.9309H79.8905C78.348 72.9309 77.0977 74.1813 77.0977 75.7238V75.7264C77.0977 77.2688 78.348 78.5192 79.8905 78.5192H95.4333C96.9758 78.5192 98.2262 77.2688 98.2262 75.7264V75.7238C98.2262 74.1813 96.9758 72.9309 95.4333 72.9309Z" fill="#EE6C00"/>
<path opacity="0.5" d="M118.099 80.7902H79.8905C78.348 80.7902 77.0977 82.0406 77.0977 83.5831V83.5857C77.0977 85.1281 78.348 86.3785 79.8905 86.3785H118.099C119.641 86.3785 120.891 85.1281 120.891 83.5857V83.5831C120.891 82.0406 119.641 80.7902 118.099 80.7902Z" fill="#EE6C00"/>
<path opacity="0.5" d="M132.975 88.6469H79.8905C78.348 88.6469 77.0977 89.8972 77.0977 91.4397V91.4423C77.0977 92.9847 78.348 94.2351 79.8905 94.2351H132.975C134.518 94.2351 135.768 92.9847 135.768 91.4423V91.4397C135.768 89.8972 134.518 88.6469 132.975 88.6469Z" fill="#EE6C00"/>
</g>
<path d="M95.4333 104.014H79.8905C78.348 104.014 77.0977 105.264 77.0977 106.807V106.809C77.0977 108.352 78.348 109.602 79.8905 109.602H95.4333C96.9758 109.602 98.2262 108.352 98.2262 106.809V106.807C98.2262 105.264 96.9758 104.014 95.4333 104.014Z" fill="#EE6C00"/>
<path d="M132.975 111.871H79.8905C78.348 111.871 77.0977 113.121 77.0977 114.663V114.666C77.0977 116.209 78.348 117.459 79.8905 117.459H132.975C134.518 117.459 135.768 116.209 135.768 114.666V114.663C135.768 113.121 134.518 111.871 132.975 111.871Z" fill="#EE6C00"/>
<path d="M110.756 119.73H79.8905C78.348 119.73 77.0977 120.98 77.0977 122.523V122.525C77.0977 124.068 78.348 125.318 79.8905 125.318H110.756C112.298 125.318 113.549 124.068 113.549 122.525V122.523C113.549 120.98 112.298 119.73 110.756 119.73Z" fill="#EE6C00"/>
<path d="M95.4333 135.094H79.8905C78.348 135.094 77.0977 136.345 77.0977 137.887V137.89C77.0977 139.432 78.348 140.683 79.8905 140.683H95.4333C96.9758 140.683 98.2262 139.432 98.2262 137.89V137.887C98.2262 136.345 96.9758 135.094 95.4333 135.094Z" fill="#EE6C00"/>
<path d="M132.975 142.954H79.8905C78.348 142.954 77.0977 144.204 77.0977 145.747V145.749C77.0977 147.292 78.348 148.542 79.8905 148.542H132.975C134.518 148.542 135.768 147.292 135.768 145.749V145.747C135.768 144.204 134.518 142.954 132.975 142.954Z" fill="#EE6C00"/>
<path d="M121.508 150.81H79.8905C78.348 150.81 77.0977 152.061 77.0977 153.603V153.606C77.0977 155.148 78.348 156.399 79.8905 156.399H121.508C123.05 156.399 124.3 155.148 124.3 153.606V153.603C124.3 152.061 123.05 150.81 121.508 150.81Z" fill="#EE6C00"/>
<path opacity="0.7" d="M68.1816 68.1792H239.161" stroke="#3F3D56" stroke-miterlimit="10" stroke-linecap="round"/>
<path opacity="0.7" d="M68.1816 99.7788H239.161" stroke="#3F3D56" stroke-miterlimit="10" stroke-linecap="round"/>
<path opacity="0.7" d="M68.1816 131.378H239.161" stroke="#3F3D56" stroke-miterlimit="10" stroke-linecap="round"/>
<path opacity="0.7" d="M68.1816 163.765H239.161" stroke="#3F3D56" stroke-miterlimit="10" stroke-linecap="round"/>
<path opacity="0.1" d="M208.479 183.039C229.868 183.039 247.206 181.807 247.206 180.286C247.206 178.765 229.868 177.532 208.479 177.532C187.091 177.532 169.752 178.765 169.752 180.286C169.752 181.807 187.091 183.039 208.479 183.039Z" fill="#EE6C00"/>
<path opacity="0.1" d="M18.493 42.6949C21.6257 42.6949 24.1652 40.1554 24.1652 37.0227C24.1652 33.8901 21.6257 31.3505 18.493 31.3505C15.3603 31.3505 12.8208 33.8901 12.8208 37.0227C12.8208 40.1554 15.3603 42.6949 18.493 42.6949Z" fill="#EE6C00"/>
<path opacity="0.1" d="M42.1336 11.3444C45.2663 11.3444 47.8058 8.80487 47.8058 5.6722C47.8058 2.53953 45.2663 0 42.1336 0C39.001 0 36.4614 2.53953 36.4614 5.6722C36.4614 8.80487 39.001 11.3444 42.1336 11.3444Z" fill="#EE6C00"/>
<path opacity="0.1" d="M40.2117 36.7159C45.4618 36.7159 49.7178 32.4599 49.7178 27.2098C49.7178 21.9597 45.4618 17.7037 40.2117 17.7037C34.9616 17.7037 30.7056 21.9597 30.7056 27.2098C30.7056 32.4599 34.9616 36.7159 40.2117 36.7159Z" fill="#EE6C00"/>
<path d="M218.187 78.868H191.473C188.869 78.868 186.758 80.979 186.758 83.583C186.758 86.1871 188.869 88.2981 191.473 88.2981H218.187C220.791 88.2981 222.902 86.1871 222.902 83.583C222.902 80.979 220.791 78.868 218.187 78.868Z" fill="#3F3D56"/>
<path opacity="0.1" d="M217.406 80.4467H192.252C190.518 80.4467 189.113 81.8515 189.113 83.5844C189.113 85.3172 190.518 86.722 192.252 86.722H217.406C219.139 86.722 220.545 85.3172 220.545 83.5844C220.545 81.8515 219.139 80.4467 217.406 80.4467Z" fill="black"/>
<path d="M190.167 173.339C190.579 173.279 190.99 173.195 191.394 173.101C191.342 173.505 191.225 173.898 191.048 174.265C190.647 175.025 189.863 175.484 189.142 175.951C189.042 175.858 188.914 175.802 188.778 175.793C188.642 175.784 188.508 175.822 188.397 175.901C187.529 176.426 186.837 177.165 185.916 177.616C185.594 177.774 185.258 177.899 184.943 178.075C184.18 178.54 183.548 179.193 183.108 179.971C182.845 180.378 182.633 180.913 182.89 181.316C182.988 181.453 183.116 181.567 183.262 181.649C183.636 181.91 184.084 182.044 184.539 182.03C184.802 182.006 185.064 181.906 185.35 181.862C185.709 181.799 186.076 181.83 186.438 181.799C186.963 181.731 187.477 181.598 187.969 181.403L189.771 180.774C190.28 180.609 190.775 180.406 191.253 180.165C191.539 180.011 191.809 179.83 192.1 179.688C192.427 179.543 192.766 179.423 193.112 179.331L194.135 179.032C194.282 178.976 194.44 178.955 194.596 178.972C194.738 178.998 194.858 179.087 195.003 179.124C195.223 179.163 195.45 179.142 195.658 179.061L196.844 178.726C197.094 178.669 197.332 178.57 197.549 178.432C198.092 178.046 198.189 177.281 198.186 176.612C198.184 175.599 198.069 174.589 197.845 173.601C197.694 173.663 197.561 173.763 197.46 173.892C197.339 173.722 197.208 173.558 197.069 173.402C196.523 172.767 196.12 172.022 195.886 171.218C196.315 170.9 196.672 170.496 196.935 170.032C196.309 167.643 195.666 165.218 194.392 163.109C193.975 162.422 193.497 161.777 193.08 161.101C191.84 159.134 191.586 156.643 190.167 154.807C190.032 154.621 189.96 154.397 189.96 154.167C189.96 153.937 190.032 153.713 190.167 153.527C190.33 153.312 190.592 153.11 190.542 152.843C190.505 152.651 190.306 152.476 190.382 152.297C190.419 152.211 190.508 152.163 190.576 152.101C190.817 151.875 190.786 151.495 190.81 151.164C190.862 150.33 191.358 149.591 191.835 148.92C191.932 148.759 192.06 148.62 192.212 148.511C192.341 148.432 192.493 148.395 192.622 148.316C193.073 148.031 193.041 147.367 193.256 146.874C193.539 146.224 194.253 145.896 194.719 145.369C195.315 144.698 195.467 143.764 196.094 143.179C196.158 143.118 196.227 143.061 196.301 143.011C196.029 144.006 195.904 145.035 195.931 146.066C195.871 149.615 196.752 153.286 196.34 156.818C196.015 159.614 197.722 162.401 200.143 163.799C201.09 164.304 202.081 164.725 203.103 165.055C204.619 165.598 206.129 166.156 207.616 166.781C208.665 167.221 209.7 167.694 210.721 168.199C211.981 168.815 213.207 169.499 214.393 170.247C215.851 171.184 217.311 172.133 218.347 173.531C218.981 173.498 219.59 173.274 220.094 172.888C220.492 173.203 220.975 173.441 221.35 173.79C221.868 174.33 222.214 175.01 222.346 175.747H222.189C222.207 176.095 222.223 176.444 222.241 176.795C222.255 176.885 222.241 176.976 222.202 177.058C222.164 177.11 222.116 177.153 222.06 177.186L221.253 177.734C220.665 178.13 220.018 178.631 219.986 179.342C219.97 179.549 220.033 179.754 220.162 179.916C220.359 180.1 220.612 180.214 220.88 180.241C222.286 180.538 223.726 180.826 225.15 180.635C225.826 180.543 226.526 180.32 226.967 179.795C227.371 179.318 227.491 178.67 227.601 178.054C227.777 177.005 227.924 175.933 228.039 174.868C228.075 174.144 228.222 173.431 228.475 172.752C228.494 172.693 228.534 172.642 228.587 172.61C228.648 172.584 228.719 172.61 228.782 172.584C228.844 172.558 228.886 172.461 228.907 172.382C229.167 171.346 229.293 170.282 229.282 169.214C229.295 168.937 229.253 168.66 229.159 168.399C229.048 168.18 228.89 167.989 228.696 167.839C228.502 167.689 228.276 167.585 228.037 167.533C227.559 167.436 227.074 167.378 226.587 167.36C226.18 167.321 225.777 167.247 225.383 167.14C225.223 167.08 225.052 167.057 224.882 167.074C224.798 167.086 224.72 167.127 224.664 167.192C224.608 167.256 224.578 167.338 224.578 167.423C224.587 167.484 224.608 167.542 224.641 167.594L224.232 167.512C223.901 167.452 223.445 167.308 222.949 167.187C222.949 167.103 222.955 167.016 222.965 166.925C222.966 166.831 222.941 166.739 222.891 166.659C222.842 166.579 222.771 166.515 222.687 166.474L215.759 162.771L214.463 162.079C211.626 160.56 208.694 159.157 205.849 157.639C205.66 157.697 205.503 157.479 205.448 157.285C205.393 157.091 205.353 156.86 205.172 156.774C205.083 156.732 204.965 156.734 204.91 156.658C204.863 156.59 204.845 156.506 204.86 156.425C204.952 155.043 205.941 153.768 205.744 152.399C205.66 151.815 205.358 151.238 205.482 150.663C205.573 150.268 205.857 149.945 206.006 149.567C206.347 148.723 206.006 147.708 206.379 146.882C206.627 146.339 206.795 145.763 206.879 145.172C207.055 143.994 207.409 142.85 207.928 141.779C208.179 141.238 208.508 140.737 208.904 140.292C209.111 140.066 209.344 139.865 209.544 139.631C210.147 138.91 210.37 137.95 210.54 137.009C210.85 135.328 211.065 133.584 210.677 131.916C210.546 131.35 210.346 130.786 210.354 130.204C210.354 129.506 210.635 128.706 210.296 128.148C210.645 127.868 210.877 127.469 210.949 127.028C210.954 126.869 210.985 126.712 211.041 126.564C211.156 126.402 211.306 126.268 211.479 126.17C211.75 125.964 211.957 125.686 212.076 125.367C212.196 125.048 212.223 124.702 212.156 124.369C212.515 124.531 212.893 124.167 213.063 123.808C213.233 123.448 213.362 123.021 213.726 122.858C213.973 122.754 214.251 122.816 214.513 122.748C214.93 122.641 215.185 122.224 215.478 121.917C216.076 121.272 216.923 120.939 217.707 120.543C220.031 119.36 221.924 117.49 223.778 115.649C224.745 114.752 225.623 113.763 226.4 112.697C226.608 112.39 226.796 112.073 226.975 111.747L227.022 111.724L227.038 111.781C227.067 111.897 227.101 112.012 227.135 112.125C227.219 112.387 227.313 112.668 227.397 112.935C227.68 113.722 227.987 114.561 228.564 115.156C228.741 115.338 228.942 115.494 229.162 115.621C229.639 115.877 230.162 116.034 230.701 116.082C230.906 116.108 231.113 116.124 231.32 116.135C231.527 116.145 231.734 116.153 231.939 116.158L236.182 116.271C234.724 114.157 234.608 111.409 234.705 108.837C234.949 102.228 236.237 95.5594 235.041 89.0559C234.897 88.2692 234.705 87.4825 234.226 86.8505C233.596 86.0245 232.563 85.6259 231.556 85.3925C230.549 85.1591 229.503 85.0463 228.561 84.6241C227.775 84.2649 227.051 83.6879 226.201 83.4991C225.575 83.3942 224.935 83.4049 224.313 83.5306C223.547 83.6442 222.786 83.7788 222.029 83.9344L221.845 83.9738H221.853L221.727 84.0026H221.693L221.58 84.0288H221.539L221.434 84.0577L221.386 84.0708L221.289 84.1023L221.234 84.1206L221.145 84.1495L221.087 84.1731L221.004 84.2045L220.941 84.2308L220.865 84.2649L220.802 84.2963L220.731 84.3304L220.668 84.3671L220.602 84.4038L220.539 84.4458L220.479 84.4851L220.416 84.5297L220.364 84.5717L220.303 84.6241L220.254 84.6687C220.233 84.6875 220.214 84.7077 220.196 84.729L220.151 84.7736C220.131 84.7969 220.111 84.8214 220.094 84.847C220.094 84.8601 220.07 84.8733 220.059 84.889C220.049 84.9047 220.012 84.9572 219.989 84.9965V85.0122C219.93 85.1108 219.881 85.2154 219.844 85.3243C219.826 85.3794 219.808 85.4344 219.795 85.4895C219.768 85.6017 219.748 85.7156 219.737 85.8304C219.737 85.8881 219.737 85.9484 219.724 86.0061C219.724 86.1215 219.724 86.2395 219.724 86.3549C219.734 86.5518 219.756 86.7479 219.789 86.9423C218.859 87.492 218.084 88.2684 217.535 89.1991C216.987 90.1299 216.683 91.1844 216.653 92.2644C216.622 93.3443 216.866 94.4143 217.361 95.3744C217.857 96.3345 218.588 97.1533 219.485 97.7544C219.498 97.8579 219.505 97.9621 219.506 98.0664V98.1346C219.491 98.5056 219.453 98.8752 219.391 99.2413C218.354 99.04 217.3 98.9459 216.244 98.9607C215.615 98.9607 214.98 99.0184 214.345 99.0682C213.665 98.2476 213.031 97.3896 212.447 96.4983L211.046 94.4449C210.565 93.774 210.128 93.0733 209.735 92.347C209.392 91.6809 209.124 90.9729 208.741 90.3278C207.955 88.9983 206.67 87.868 206.51 86.3287L206.14 86.4047C205.938 86.0743 205.684 85.7255 205.589 85.5341C205.083 84.4416 204.693 83.299 204.425 82.125C204.296 81.5166 204.199 80.882 203.866 80.3575C203.639 80.0299 203.364 79.7382 203.051 79.4921C202.545 79.016 201.952 78.642 201.304 78.3907C201.015 78.2856 200.708 78.2407 200.401 78.2588C200.093 78.2768 199.793 78.3574 199.518 78.4956C199.433 78.456 199.345 78.421 199.256 78.3907C198.931 78.2672 198.582 78.2237 198.237 78.2638C197.892 78.304 197.561 78.4267 197.274 78.6215C196.723 79.0437 196.487 79.7675 196.403 80.4572C196.258 81.4115 196.422 82.3872 196.87 83.2421C197.394 84.1809 198.333 84.8156 199.109 85.5603C199.65 86.0836 200.123 86.672 200.518 87.3121C200.639 88.7286 200.603 90.1543 200.41 91.5629C200.31 92.1661 200.148 92.7587 200.101 93.3671C199.909 95.5647 201.053 97.7622 200.643 99.9231C200.576 100.248 200.611 100.586 200.744 100.89C200.877 101.194 201.101 101.449 201.386 101.62C201.973 101.937 202.66 101.979 203.305 102.144C204.572 102.469 205.665 103.28 206.945 103.581C207.535 103.723 208.149 103.749 208.736 103.906L208.828 103.935C208.375 104.447 208.052 105.061 207.886 105.724C207.624 106.825 207.871 108.003 207.608 109.104C207.393 110.011 206.853 110.803 206.321 111.572C205.296 113.054 204.27 114.54 203.242 116.03C202.555 117.074 201.797 118.071 200.974 119.011C199.56 120.556 197.122 121.781 196.403 123.637C196.387 123.593 196.366 123.548 196.351 123.504C195.333 124.251 194.953 125.643 194.143 126.611C193.747 127.08 193.259 127.461 192.831 127.896C192.302 128.458 191.817 129.06 191.381 129.698C190.175 131.371 188.961 133.052 188.098 134.927C187.647 135.902 187.298 136.917 186.939 137.927C185.528 141.905 183.226 145.678 182.268 149.793C182.035 150.797 181.424 151.705 181.332 152.733C181.23 153.829 181.731 154.883 182.25 155.851C183.037 157.33 183.913 158.767 184.61 160.288C185.022 161.174 185.379 162.089 185.837 162.955C186.338 163.899 186.952 164.774 187.476 165.705C188.754 168.094 189.488 170.735 190.167 173.339ZM207.517 98.1949L207.391 98.132C206.921 97.9286 206.49 97.6436 206.119 97.2902C204.989 96.0839 204.504 94.2666 204.15 92.6434C204.108 92.4493 204.071 92.2579 204.037 92.0638C205.408 94.0122 206.704 96.0262 207.517 98.2002V98.1949Z" fill="url(#paint0_linear)"/>
<path d="M202.364 82.4475C202.235 81.8418 202.141 81.2124 201.808 80.6932C201.579 80.3671 201.304 80.0772 200.989 79.833C200.481 79.36 199.886 78.9888 199.238 78.7395C198.913 78.6175 198.564 78.5746 198.219 78.6143C197.874 78.654 197.544 78.7751 197.255 78.9677C196.702 79.3872 196.468 80.1058 196.382 80.8033C196.237 81.7517 196.401 82.7216 196.849 83.5699C197.386 84.5035 198.315 85.1276 199.093 85.8724C199.659 86.4179 200.151 87.035 200.557 87.708C200.742 88.057 200.965 88.3842 201.223 88.6836C201.353 88.8302 201.516 88.9447 201.698 89.0179C201.88 89.0912 202.076 89.1212 202.272 89.1058C202.599 89.0193 202.896 88.8441 203.129 88.5996C203.449 88.319 204.309 87.8129 204.336 87.375C204.357 87.0157 203.685 86.2028 203.52 85.8645C203.016 84.7693 202.628 83.624 202.364 82.4475Z" fill="#FBBEBE"/>
<path opacity="0.1" d="M202.364 82.4475C202.235 81.8418 202.141 81.2124 201.808 80.6932C201.579 80.3671 201.304 80.0772 200.989 79.833C200.481 79.36 199.886 78.9888 199.238 78.7395C198.913 78.6175 198.564 78.5746 198.219 78.6143C197.874 78.654 197.544 78.7751 197.255 78.9677C196.702 79.3872 196.468 80.1058 196.382 80.8033C196.237 81.7517 196.401 82.7216 196.849 83.5699C197.386 84.5035 198.315 85.1276 199.093 85.8724C199.659 86.4179 200.151 87.035 200.557 87.708C200.742 88.057 200.965 88.3842 201.223 88.6836C201.353 88.8302 201.516 88.9447 201.698 89.0179C201.88 89.0912 202.076 89.1212 202.272 89.1058C202.599 89.0193 202.896 88.8441 203.129 88.5996C203.449 88.319 204.309 87.8129 204.336 87.375C204.357 87.0157 203.685 86.2028 203.52 85.8645C203.016 84.7693 202.628 83.624 202.364 82.4475Z" fill="black"/>
<path d="M220.503 99.7107C219.119 99.3399 217.691 99.1634 216.26 99.1862C213.871 99.2203 211.411 99.7998 209.135 99.0655C208.549 98.8662 207.979 98.6234 207.43 98.3391C206.959 98.1375 206.528 97.8543 206.156 97.5026C205.023 96.3042 204.535 94.4974 204.183 92.8872C203.873 91.267 203.693 89.6245 203.646 87.9755C203.056 88.2509 202.432 88.521 201.784 88.4659C201.136 88.4108 200.473 87.9126 200.473 87.2622C200.57 88.7885 200.641 90.333 200.386 91.8383C200.287 92.4362 200.124 93.0262 200.079 93.6294C199.885 95.8138 201.031 97.9956 200.622 100.149C200.554 100.472 200.588 100.808 200.722 101.11C200.855 101.412 201.08 101.665 201.364 101.832C201.952 102.149 202.642 102.189 203.287 102.357C204.553 102.679 205.647 103.484 206.932 103.786C207.522 103.925 208.138 103.951 208.725 104.108C209.562 104.331 210.325 104.811 211.18 104.961C211.82 105.076 212.491 104.997 213.128 105.052C213.692 105.1 214.243 105.246 214.809 105.262C216.194 105.296 217.5 104.515 218.418 103.476C219.336 102.438 219.92 100.962 220.503 99.7107Z" fill="#F86D70"/>
<path opacity="0.1" d="M220.503 99.7107C219.119 99.3399 217.691 99.1634 216.26 99.1862C213.871 99.2203 211.411 99.7998 209.135 99.0655C208.549 98.8662 207.979 98.6234 207.43 98.3391C206.959 98.1375 206.528 97.8543 206.156 97.5026C205.023 96.3042 204.535 94.4974 204.183 92.8872C203.873 91.267 203.693 89.6245 203.646 87.9755C203.056 88.2509 202.432 88.521 201.784 88.4659C201.136 88.4108 200.473 87.9126 200.473 87.2622C200.57 88.7885 200.641 90.333 200.386 91.8383C200.287 92.4362 200.124 93.0262 200.079 93.6294C199.885 95.8138 201.031 97.9956 200.622 100.149C200.554 100.472 200.588 100.808 200.722 101.11C200.855 101.412 201.08 101.665 201.364 101.832C201.952 102.149 202.642 102.189 203.287 102.357C204.553 102.679 205.647 103.484 206.932 103.786C207.522 103.925 208.138 103.951 208.725 104.108C209.562 104.331 210.325 104.811 211.18 104.961C211.82 105.076 212.491 104.997 213.128 105.052C213.692 105.1 214.243 105.246 214.809 105.262C216.194 105.296 217.5 104.515 218.418 103.476C219.336 102.438 219.92 100.962 220.503 99.7107Z" fill="black"/>
<path d="M224.295 167.221C224.723 167.274 225.137 167.404 225.519 167.604C226.018 167.958 226.39 168.461 226.584 169.041C227.156 170.452 227.274 172.004 227.3 173.528C227.321 174.758 227.279 176.017 226.838 177.165C226.718 177.528 226.51 177.855 226.233 178.117C225.987 178.31 225.702 178.448 225.399 178.521C224.741 178.702 223.98 178.699 223.442 178.28C222.845 177.813 222.695 176.987 222.569 176.239C222.399 175.232 222.157 174.16 221.407 173.465C220.852 172.941 220.054 172.678 219.65 172.044C219.168 171.281 219.422 170.284 219.729 169.434C219.991 168.698 220.387 167.205 221.158 166.828C221.929 166.45 223.495 167.077 224.295 167.221Z" fill="#FBBEBE"/>
<path d="M195.892 170.84C196.123 171.663 196.533 172.425 197.093 173.072C197.434 173.465 197.861 173.942 197.683 174.43C197.608 174.596 197.498 174.743 197.36 174.863C194.827 177.338 191.284 178.534 187.77 178.985C187.714 179 187.656 179 187.6 178.985C187.497 178.941 187.471 178.809 187.461 178.697C187.403 178.331 187.403 177.958 187.461 177.593C187.631 176.735 188.384 176.129 189.121 175.655C189.858 175.18 190.663 174.724 191.072 173.95C191.583 172.99 191.368 171.739 191.976 170.84C192.47 170.108 193.387 169.791 194.261 169.66C194.562 169.613 195.205 169.282 195.462 169.434C195.719 169.587 195.803 170.538 195.892 170.84Z" fill="#FBBEBE"/>
<path d="M224.641 167.132C224.641 167.047 224.672 166.965 224.728 166.902C224.784 166.838 224.861 166.797 224.945 166.786C225.115 166.769 225.286 166.791 225.446 166.849C225.84 166.958 226.243 167.033 226.65 167.072C227.138 167.089 227.624 167.146 228.102 167.242C228.342 167.292 228.567 167.395 228.762 167.544C228.956 167.692 229.115 167.882 229.227 168.1C229.321 168.36 229.363 168.636 229.351 168.913C229.361 169.973 229.235 171.031 228.976 172.059C228.955 172.138 228.923 172.23 228.847 172.259C228.771 172.288 228.716 172.259 228.656 172.288C228.628 172.303 228.604 172.323 228.585 172.347C228.566 172.371 228.551 172.399 228.543 172.429C228.289 173.102 228.141 173.809 228.105 174.527C227.99 175.576 227.843 176.641 227.667 177.69C227.565 178.303 227.436 178.948 227.032 179.42C226.589 179.945 225.889 180.163 225.212 180.254C223.786 180.443 222.346 180.157 220.938 179.864C220.669 179.837 220.416 179.724 220.217 179.541C220.088 179.38 220.025 179.175 220.041 178.969C220.073 178.264 220.723 177.766 221.308 177.372L222.118 176.83C222.175 176.798 222.223 176.754 222.26 176.701C222.3 176.62 222.313 176.528 222.299 176.439L222.247 175.39C222.783 175.399 223.307 175.554 223.763 175.838C224.219 176.121 224.589 176.523 224.835 177C224.945 177.223 225.053 177.483 225.283 177.569C225.433 177.603 225.591 177.578 225.723 177.498C225.854 177.418 225.95 177.291 225.989 177.142C226.058 176.841 226.05 176.528 225.965 176.232C225.49 173.696 225.603 171.089 225.315 168.527C225.296 168.239 225.206 167.959 225.053 167.714C224.929 167.538 224.67 167.368 224.641 167.132Z" fill="#F86D70"/>
<path d="M192.692 86.3785H198.456C199.999 86.3785 201.249 85.1281 201.249 83.5857V83.5831C201.249 82.0406 199.999 80.7902 198.456 80.7902H192.692C191.15 80.7902 189.899 82.0406 189.899 83.5831V83.5857C189.899 85.1281 191.15 86.3785 192.692 86.3785Z" fill="#EE6C00"/>
<path d="M195.661 85.3296C196.626 85.3296 197.408 84.5476 197.408 83.5831C197.408 82.6185 196.626 81.8365 195.661 81.8365C194.696 81.8365 193.915 82.6185 193.915 83.5831C193.915 84.5476 194.696 85.3296 195.661 85.3296Z" fill="white"/>
<path d="M189.364 176.963C189.246 177.16 189.06 177.312 188.95 177.514C188.888 177.61 188.862 177.726 188.879 177.839C188.895 177.952 188.952 178.056 189.039 178.13C189.157 178.182 189.289 178.195 189.414 178.167C191.947 177.851 194.325 176.774 196.232 175.078C196.55 174.81 196.831 174.503 197.069 174.163C197.292 173.824 197.481 173.41 197.856 173.268C198.084 174.253 198.202 175.26 198.207 176.271C198.207 176.937 198.113 177.695 197.57 178.08C197.352 178.216 197.113 178.314 196.862 178.369L195.677 178.705C195.467 178.784 195.239 178.805 195.018 178.767C194.879 178.731 194.756 178.642 194.612 178.615C194.455 178.599 194.297 178.619 194.15 178.676L193.125 178.975C192.778 179.065 192.44 179.183 192.113 179.329C191.819 179.468 191.549 179.646 191.263 179.801C190.785 180.04 190.289 180.242 189.779 180.404L187.977 181.031C187.484 181.223 186.969 181.356 186.443 181.424C186.081 181.455 185.712 181.424 185.352 181.484C185.09 181.531 184.828 181.631 184.539 181.652C184.084 181.666 183.637 181.534 183.262 181.274C183.116 181.192 182.989 181.079 182.89 180.944C182.628 180.543 182.856 180.013 183.108 179.607C183.551 178.834 184.182 178.187 184.943 177.724C185.258 177.551 185.596 177.425 185.919 177.267C186.839 176.822 187.534 176.077 188.402 175.568C189.223 175.088 189.75 176.329 189.364 176.963Z" fill="#F86D70"/>
<path d="M214.691 104.355C215.644 105.009 216.736 105.433 217.88 105.595C218.479 105.67 219.081 105.702 219.684 105.692C222.2 105.69 224.711 105.48 227.192 105.066C226.206 103.977 225.207 102.813 224.832 101.394C224.647 100.642 224.608 99.8614 224.717 99.0944C224.868 98.1145 225.103 97.1494 225.42 96.2098C224.361 96.2653 223.3 96.2381 222.246 96.1285C221.646 96.0656 220.172 95.5201 219.65 95.9344C219.128 96.3488 219.53 97.6836 219.538 98.3103C219.539 98.333 219.539 98.3558 219.538 98.3785C219.512 99.3332 219.307 100.275 218.932 101.153C218.182 102.847 216.556 104.242 214.691 104.355Z" fill="#FBBEBE"/>
<path opacity="0.1" d="M219.54 98.2972C220.297 98.7916 221.151 99.1178 222.045 99.2535C222.938 99.3892 223.85 99.3314 224.72 99.0839C224.871 98.104 225.106 97.1389 225.422 96.1993C224.364 96.2548 223.303 96.2277 222.249 96.118C221.649 96.0551 220.175 95.5096 219.653 95.924C219.131 96.3383 219.533 97.6705 219.54 98.2972Z" fill="black"/>
<path d="M223.002 99.0341C226.494 99.0341 229.324 96.2034 229.324 92.7115C229.324 89.2197 226.494 86.389 223.002 86.389C219.51 86.389 216.679 89.2197 216.679 92.7115C216.679 96.2034 219.51 99.0341 223.002 99.0341Z" fill="#FBBEBE"/>
<path d="M196.177 124.702C196.175 125.212 196.305 125.714 196.556 126.158C196.806 126.603 197.167 126.975 197.604 127.238C198.091 127.493 198.612 127.677 199.151 127.783C202.036 128.481 205.004 129.042 207.975 128.872C208.619 128.866 209.256 128.732 209.848 128.478C210.142 128.348 210.401 128.148 210.602 127.897C210.804 127.645 210.941 127.349 211.004 127.033C211.007 126.876 211.037 126.721 211.093 126.574C211.209 126.413 211.358 126.28 211.531 126.184C211.802 125.98 212.009 125.704 212.129 125.387C212.249 125.071 212.278 124.727 212.21 124.395C212.57 124.558 212.947 124.193 213.118 123.837C213.288 123.48 213.419 123.05 213.781 122.895C214.028 122.79 214.306 122.853 214.568 122.785C214.985 122.677 215.239 122.261 215.533 121.959C216.131 121.319 216.983 120.989 217.765 120.593C220.093 119.42 221.989 117.561 223.849 115.733C224.815 114.843 225.693 113.861 226.471 112.802C226.679 112.497 226.872 112.182 227.048 111.858C227.608 110.781 228.094 109.667 228.503 108.524C228.739 107.911 228.978 107.266 228.881 106.615C228.881 106.558 228.86 106.5 228.847 106.44C228.725 106.022 228.531 105.63 228.273 105.281C227.63 104.337 226.788 103.445 225.682 103.151C224.575 102.858 223.474 103.212 222.349 103.45C221.976 103.534 221.599 103.591 221.218 103.623C220.028 103.707 218.858 103.387 217.699 103.07L216.446 102.724C215.819 102.551 215.504 101.793 214.872 101.659C214.588 101.616 214.298 101.631 214.02 101.704C212.732 101.948 211.432 102.265 210.296 102.92C210.042 103.066 209.8 103.23 209.572 103.413C208.748 104.029 208.155 104.904 207.889 105.897C207.627 106.99 207.873 108.16 207.611 109.254C207.396 110.156 206.853 110.942 206.323 111.703L203.234 116.127C202.545 117.163 201.787 118.152 200.963 119.085C199.301 120.892 196.222 122.25 196.177 124.702Z" fill="#F86D70"/>
<path d="M204.422 82.4475C204.294 81.8418 204.199 81.2124 203.866 80.6932C203.638 80.3671 203.362 80.0772 203.048 79.833C202.539 79.36 201.945 78.9888 201.296 78.7395C200.971 78.6175 200.622 78.5746 200.277 78.6143C199.933 78.654 199.602 78.7751 199.314 78.9677C198.76 79.3872 198.527 80.1058 198.441 80.8033C198.296 81.7517 198.459 82.7216 198.907 83.5699C199.432 84.5035 200.373 85.1276 201.152 85.8724C201.718 86.4179 202.21 87.035 202.615 87.708C202.8 88.057 203.024 88.3842 203.281 88.6836C203.412 88.8302 203.574 88.9447 203.756 89.0179C203.938 89.0912 204.135 89.1212 204.33 89.1058C204.657 89.0193 204.954 88.8441 205.188 88.5996C205.508 88.319 206.368 87.8129 206.394 87.375C206.415 87.0157 205.744 86.2028 205.579 85.8645C205.074 84.7693 204.686 83.624 204.422 82.4475Z" fill="#FBBEBE"/>
<path d="M182.205 155.675C182.992 157.143 183.868 158.559 184.579 160.08C184.99 160.964 185.347 161.871 185.806 162.732C186.307 163.668 186.923 164.538 187.447 165.462C188.759 167.795 189.501 170.428 190.18 173.022C192.078 172.74 193.904 172.097 195.561 171.128C195.672 171.066 195.78 170.996 195.884 170.921C196.327 170.604 196.697 170.195 196.969 169.723C196.343 167.363 195.7 164.942 194.423 162.847C194.006 162.165 193.529 161.536 193.112 160.851C191.871 158.898 191.614 156.435 190.196 154.608C190.06 154.424 189.987 154.201 189.987 153.973C189.987 153.745 190.06 153.522 190.196 153.338C190.358 153.126 190.62 152.924 190.571 152.659C190.534 152.468 190.335 152.295 190.411 152.116C190.447 152.03 190.537 151.983 190.605 151.92C190.846 151.699 190.815 151.319 190.838 150.994C190.891 150.165 191.386 149.439 191.866 148.762C191.964 148.603 192.092 148.465 192.244 148.356C192.372 148.277 192.524 148.24 192.653 148.162C193.104 147.881 193.072 147.22 193.29 146.73C193.573 146.085 194.287 145.757 194.756 145.235C195.351 144.569 195.501 143.643 196.13 143.061C196.195 143 196.264 142.944 196.337 142.893C196.064 143.884 195.94 144.91 195.968 145.938C195.907 149.462 196.788 153.108 196.377 156.608C196.051 159.383 197.761 162.152 200.184 163.542C201.135 164.044 202.127 164.461 203.15 164.79C204.666 165.328 206.182 165.881 207.669 166.503C208.718 166.938 209.766 167.41 210.779 167.911C212.039 168.521 213.264 169.201 214.45 169.946C215.911 170.874 217.374 171.818 218.41 173.205C219.414 173.179 220.335 172.576 220.969 171.797C221.604 171.018 222 170.077 222.37 169.146C222.692 168.341 223.012 167.515 223.036 166.647C223.036 166.554 223.01 166.462 222.961 166.383C222.912 166.304 222.841 166.24 222.758 166.198L215.819 162.527L214.508 161.84C211.668 160.332 208.738 158.937 205.883 157.432C205.691 157.487 205.534 157.269 205.479 157.08C205.424 156.892 205.384 156.656 205.204 156.572C205.112 156.53 204.996 156.53 204.941 156.456C204.896 156.388 204.879 156.306 204.894 156.226C204.986 154.851 205.977 153.587 205.778 152.226C205.694 151.644 205.392 151.073 205.516 150.503C205.607 150.107 205.891 149.788 206.04 149.413C206.378 148.573 206.04 147.577 206.412 146.746C206.661 146.206 206.83 145.634 206.913 145.046C207.092 143.876 207.45 142.74 207.975 141.679C208.227 141.141 208.555 140.643 208.951 140.2C209.161 139.977 209.394 139.775 209.591 139.545C210.197 138.829 210.417 137.874 210.59 136.954C210.899 135.283 211.114 133.545 210.726 131.895C210.595 131.331 210.396 130.773 210.404 130.193C210.404 129.43 210.747 128.536 210.218 127.982C209.994 127.784 209.723 127.647 209.431 127.584C208.197 127.251 206.939 127.019 205.668 126.889L199.883 126.136C199.214 126.092 198.56 125.922 197.955 125.635C197.169 125.203 196.644 124.398 196.329 123.559C195.312 124.301 194.929 125.683 194.119 126.642C193.723 127.112 193.235 127.489 192.808 127.92C192.276 128.477 191.791 129.076 191.355 129.711C190.146 131.371 188.929 133.044 188.064 134.903C187.615 135.871 187.277 136.88 186.905 137.882C185.491 141.834 183.186 145.584 182.229 149.667C181.993 150.666 181.382 151.566 181.29 152.588C181.183 153.671 181.683 154.72 182.205 155.675Z" fill="#434175"/>
<path opacity="0.1" d="M212.551 122.869C212.692 123.132 212.765 123.426 212.764 123.724C212.635 123.084 211.754 122.73 211.699 122.098C211.673 121.807 211.725 121.82 211.906 121.975C212.182 122.203 212.3 122.617 212.551 122.869Z" fill="black"/>
<path opacity="0.1" d="M209.874 124.809C210.058 124.967 210.197 125.172 210.275 125.402C210.422 125.726 210.45 126.091 210.354 126.433C210.225 126.372 210.181 126.215 210.141 126.076C210.082 125.861 209.994 125.656 209.879 125.465C209.774 125.3 209.294 124.906 209.299 124.726C209.292 124.453 209.745 124.712 209.874 124.809Z" fill="black"/>
<path opacity="0.1" d="M209.564 103.413C209.971 103.762 210.418 104.059 210.897 104.3C212.15 104.934 213.537 105.267 214.799 105.873C215.421 106.189 216.025 106.539 216.608 106.922C217.859 107.709 219.107 108.496 220.356 109.295C220.656 109.469 220.934 109.679 221.182 109.922C221.633 110.405 221.63 111.233 222.042 111.758C222.269 112.017 222.548 112.226 222.861 112.37C223.174 112.515 223.514 112.592 223.859 112.597C224.549 112.603 225.236 112.487 225.886 112.256C226.281 112.139 226.668 111.998 227.045 111.834C227.44 111.668 227.813 111.454 228.157 111.199C228.501 110.958 228.794 110.65 229.019 110.295C229.244 109.94 229.396 109.544 229.468 109.13C229.513 108.558 229.438 107.982 229.245 107.441C229.141 107.089 229.008 106.746 228.847 106.416C228.754 106.229 228.647 106.049 228.527 105.879C227.667 104.659 226.151 104.085 224.685 103.799C223.911 103.649 223.125 103.558 222.349 103.427C221.976 103.51 221.599 103.568 221.218 103.6C220.028 103.684 218.858 103.364 217.699 103.046L216.446 102.7C215.819 102.527 215.504 101.769 214.872 101.636C214.588 101.593 214.298 101.608 214.02 101.68C212.732 101.924 211.432 102.241 210.296 102.897C210.039 103.049 209.794 103.222 209.564 103.413Z" fill="black"/>
<path d="M206.51 86.6329C206.67 88.1617 207.96 89.2841 208.746 90.6032C209.129 91.2456 209.397 91.9484 209.74 92.6119C210.133 93.338 210.571 94.0387 211.052 94.7098L212.455 96.7474C213.281 97.9458 214.114 99.1547 215.169 100.156C217.004 100.469 218.552 101.835 220.295 102.498C221.693 103.023 223.214 103.101 224.68 103.387C226.146 103.673 227.662 104.245 228.522 105.467C228.843 105.95 229.086 106.481 229.24 107.04C229.432 107.58 229.508 108.155 229.463 108.726C229.392 109.141 229.239 109.537 229.014 109.893C228.789 110.248 228.496 110.556 228.152 110.798C227.462 111.276 226.695 111.631 225.884 111.847C225.233 112.077 224.547 112.193 223.857 112.188C223.512 112.183 223.171 112.105 222.858 111.961C222.545 111.816 222.265 111.608 222.037 111.349C221.628 110.824 221.63 109.988 221.179 109.513C220.931 109.27 220.654 109.06 220.353 108.886L216.606 106.526C216.022 106.144 215.418 105.793 214.796 105.477C213.535 104.861 212.148 104.528 210.894 103.904C209.641 103.28 208.474 102.223 208.227 100.841C207.464 96.5953 204.524 93.0157 202.012 89.5096C202.094 89.4939 202.07 89.3051 202.099 89.2264C202.462 88.4035 203.116 87.7428 203.934 87.3698C204.742 86.9318 205.639 86.8191 206.51 86.6329Z" fill="#F86D70"/>
<path d="M219.755 86.6643C219.708 86.2041 219.799 85.7403 220.017 85.3322C220.434 84.6399 221.305 84.396 222.097 84.2334C222.889 84.0708 223.618 83.9449 224.384 83.8348C225.007 83.7096 225.647 83.698 226.274 83.8007C227.129 83.9895 227.848 84.5638 228.635 84.9178C229.579 85.34 230.628 85.4423 231.635 85.6836C232.642 85.9248 233.677 86.3103 234.309 87.1311C234.789 87.7526 234.981 88.5472 235.125 89.3208C236.323 95.7797 235.033 102.404 234.789 108.968C234.692 111.522 234.808 114.252 236.268 116.352L232.017 116.24C230.929 116.211 229.76 116.153 228.905 115.482C228.149 114.892 227.793 113.94 227.473 113.04C227.183 112.342 226.999 111.603 226.927 110.851C226.862 109.309 227.738 107.795 227.452 106.277C227.239 105.144 226.403 104.226 225.532 103.484C224.662 102.742 223.67 102.094 222.955 101.19C221.683 99.5769 221.439 97.3768 221.596 95.3287C221.691 94.1119 221.911 92.8925 221.803 91.6757C221.75 90.7447 221.414 89.852 220.841 89.1163C220.172 88.3086 219.818 87.8051 219.755 86.6643Z" fill="#434175"/>
<path opacity="0.1" d="M220.018 85.3322C220.427 84.6504 221.276 84.4039 222.055 84.2439C221.642 84.3892 221.288 84.6654 221.046 85.0306C220.829 85.4402 220.738 85.9044 220.783 86.3654C220.841 87.5061 221.195 88.0096 221.872 88.8173C222.447 89.552 222.784 90.4451 222.837 91.3768C222.942 92.5935 222.724 93.8103 222.63 95.0297C222.47 97.0752 222.714 99.278 223.988 100.891C224.701 101.795 225.685 102.441 226.566 103.185C227.447 103.93 228.273 104.845 228.485 105.978C228.769 107.494 227.893 109.01 227.961 110.552C228.03 111.304 228.213 112.041 228.504 112.739C228.826 113.641 229.183 114.593 229.936 115.183C230.79 115.854 231.963 115.912 233.051 115.941L236.061 116.019C236.127 116.129 236.198 116.239 236.271 116.347L232.02 116.234C230.932 116.205 229.763 116.148 228.908 115.476C228.152 114.886 227.796 113.934 227.476 113.035C227.186 112.336 227.002 111.598 226.93 110.845C226.865 109.303 227.741 107.79 227.455 106.272C227.242 105.139 226.406 104.221 225.535 103.479C224.665 102.737 223.673 102.089 222.957 101.184C221.686 99.5717 221.442 97.3715 221.599 95.3234C221.693 94.1067 221.914 92.8872 221.806 91.6705C221.752 90.7395 221.417 89.8468 220.844 89.111C220.167 88.3033 219.813 87.7998 219.753 86.6591C219.708 86.2003 219.8 85.7385 220.018 85.3322Z" fill="black"/>
<path opacity="0.1" d="M188.083 151.896L195.892 170.921C196.335 170.604 196.706 170.196 196.978 169.723C196.351 167.363 195.708 164.942 194.431 162.847C194.014 162.165 193.537 161.536 193.12 160.851C191.88 158.898 191.623 156.435 190.204 154.608C190.069 154.424 189.996 154.201 189.996 153.973C189.996 153.745 190.069 153.522 190.204 153.338C190.367 153.126 190.629 152.924 190.579 152.659C190.542 152.468 190.343 152.295 190.419 152.116C190.456 152.03 190.545 151.983 190.613 151.92C190.854 151.699 190.823 151.319 190.847 150.994C190.899 150.165 191.395 149.439 191.874 148.762C191.972 148.603 192.1 148.465 192.252 148.356C192.381 148.277 192.533 148.24 192.661 148.162C193.112 147.881 193.081 147.22 193.298 146.73C193.582 146.085 194.295 145.757 194.764 145.235C195.36 144.569 195.509 143.643 196.138 143.061L196.194 142.925L195.604 139.254L188.083 151.896Z" fill="black"/>
<path d="M256.219 174.619C261.136 174.619 265.122 173.852 265.122 172.906C265.122 171.961 261.136 171.194 256.219 171.194C251.302 171.194 247.316 171.961 247.316 172.906C247.316 173.852 251.302 174.619 256.219 174.619Z" fill="#EE6C00"/>
<path d="M256.369 173.533C256.941 173.533 257.405 172.926 257.405 172.177C257.405 171.429 256.941 170.822 256.369 170.822C255.797 170.822 255.333 171.429 255.333 172.177C255.333 172.926 255.797 173.533 256.369 173.533Z" fill="#3F3D56"/>
<path d="M256.369 171.876C256.941 171.876 257.405 171.269 257.405 170.52C257.405 169.771 256.941 169.164 256.369 169.164C255.797 169.164 255.333 169.771 255.333 170.52C255.333 171.269 255.797 171.876 256.369 171.876Z" fill="#3F3D56"/>
<path d="M256.369 170.216C256.941 170.216 257.405 169.609 257.405 168.86C257.405 168.111 256.941 167.504 256.369 167.504C255.797 167.504 255.333 168.111 255.333 168.86C255.333 169.609 255.797 170.216 256.369 170.216Z" fill="#3F3D56"/>
<path d="M256.369 168.559C256.941 168.559 257.405 167.952 257.405 167.203C257.405 166.454 256.941 165.847 256.369 165.847C255.797 165.847 255.333 166.454 255.333 167.203C255.333 167.952 255.797 168.559 256.369 168.559Z" fill="#3F3D56"/>
<path d="M256.369 166.899C256.941 166.899 257.405 166.292 257.405 165.543C257.405 164.794 256.941 164.187 256.369 164.187C255.797 164.187 255.333 164.794 255.333 165.543C255.333 166.292 255.797 166.899 256.369 166.899Z" fill="#3F3D56"/>
<path d="M256.369 165.241C256.941 165.241 257.405 164.634 257.405 163.885C257.405 163.137 256.941 162.53 256.369 162.53C255.797 162.53 255.333 163.137 255.333 163.885C255.333 164.634 255.797 165.241 256.369 165.241Z" fill="#3F3D56"/>
<path d="M256.369 163.584C256.941 163.584 257.405 162.977 257.405 162.228C257.405 161.479 256.941 160.872 256.369 160.872C255.797 160.872 255.333 161.479 255.333 162.228C255.333 162.977 255.797 163.584 256.369 163.584Z" fill="#3F3D56"/>
<path d="M252.488 150.879C252.346 150.698 252.217 150.508 252.102 150.309L254.824 149.861L251.879 149.885C251.598 149.27 251.444 148.604 251.428 147.928C251.411 147.251 251.533 146.579 251.785 145.951L255.737 147.999L252.092 145.322C252.432 144.729 252.891 144.212 253.439 143.805C253.988 143.397 254.615 143.107 255.281 142.953C255.947 142.799 256.638 142.784 257.31 142.909C257.982 143.034 258.621 143.297 259.187 143.68C259.753 144.064 260.234 144.56 260.599 145.138C260.964 145.716 261.206 146.363 261.31 147.038C261.414 147.714 261.377 148.404 261.202 149.065C261.027 149.725 260.717 150.343 260.292 150.879C260.514 151.158 260.704 151.462 260.859 151.783L257.324 153.619L261.095 152.355C261.268 152.868 261.356 153.405 261.357 153.947C261.358 155.061 260.983 156.143 260.292 157.018C260.868 157.75 261.226 158.629 261.326 159.556C261.425 160.482 261.262 161.417 260.855 162.255C260.448 163.093 259.814 163.8 259.024 164.294C258.234 164.788 257.322 165.05 256.39 165.05C255.458 165.05 254.546 164.788 253.756 164.294C252.966 163.8 252.332 163.093 251.925 162.255C251.518 161.417 251.355 160.482 251.454 159.556C251.554 158.629 251.912 157.75 252.488 157.018C251.8 156.142 251.426 155.061 251.426 153.948C251.426 152.835 251.8 151.754 252.488 150.879Z" fill="#EE6C00"/>
<path opacity="0.1" d="M261.357 153.947C261.358 155.061 260.983 156.143 260.292 157.017C260.868 157.75 261.226 158.629 261.326 159.555C261.425 160.482 261.262 161.417 260.855 162.255C260.448 163.093 259.814 163.8 259.024 164.294C258.234 164.788 257.322 165.05 256.39 165.05C255.458 165.05 254.546 164.788 253.756 164.294C252.966 163.8 252.332 163.093 251.925 162.255C251.518 161.417 251.355 160.482 251.454 159.555C251.554 158.629 251.912 157.75 252.488 157.017C251.822 156.173 261.357 153.391 261.357 153.947Z" fill="black"/>
<path d="M273.559 155.04C276.865 155.04 279.546 154.525 279.546 153.889C279.546 153.253 276.865 152.738 273.559 152.738C270.252 152.738 267.572 153.253 267.572 153.889C267.572 154.525 270.252 155.04 273.559 155.04Z" fill="#EE6C00"/>
<path d="M273.661 154.314C274.046 154.314 274.358 153.905 274.358 153.401C274.358 152.897 274.046 152.489 273.661 152.489C273.276 152.489 272.963 152.897 272.963 153.401C272.963 153.905 273.276 154.314 273.661 154.314Z" fill="#3F3D56"/>
<path d="M273.661 153.199C274.046 153.199 274.358 152.791 274.358 152.287C274.358 151.783 274.046 151.374 273.661 151.374C273.276 151.374 272.963 151.783 272.963 152.287C272.963 152.791 273.276 153.199 273.661 153.199Z" fill="#3F3D56"/>
<path d="M273.661 152.082C274.046 152.082 274.358 151.674 274.358 151.17C274.358 150.666 274.046 150.257 273.661 150.257C273.276 150.257 272.963 150.666 272.963 151.17C272.963 151.674 273.276 152.082 273.661 152.082Z" fill="#3F3D56"/>
<path d="M273.661 150.968C274.046 150.968 274.358 150.559 274.358 150.055C274.358 149.551 274.046 149.142 273.661 149.142C273.276 149.142 272.963 149.551 272.963 150.055C272.963 150.559 273.276 150.968 273.661 150.968Z" fill="#3F3D56"/>
<path d="M273.661 149.853C274.046 149.853 274.358 149.445 274.358 148.941C274.358 148.437 274.046 148.028 273.661 148.028C273.276 148.028 272.963 148.437 272.963 148.941C272.963 149.445 273.276 149.853 273.661 149.853Z" fill="#3F3D56"/>
<path d="M273.661 148.739C274.046 148.739 274.358 148.33 274.358 147.826C274.358 147.322 274.046 146.913 273.661 146.913C273.276 146.913 272.963 147.322 272.963 147.826C272.963 148.33 273.276 148.739 273.661 148.739Z" fill="#3F3D56"/>
<path d="M273.661 147.622C274.046 147.622 274.358 147.213 274.358 146.709C274.358 146.205 274.046 145.796 273.661 145.796C273.276 145.796 272.963 146.205 272.963 146.709C272.963 147.213 273.276 147.622 273.661 147.622Z" fill="#3F3D56"/>
<path d="M271.052 139.08C270.954 138.96 270.866 138.832 270.789 138.698L272.625 138.396L270.645 138.412C270.443 137.975 270.338 137.498 270.338 137.017C270.338 136.588 270.42 136.163 270.58 135.766L273.239 137.145L270.787 135.344C271.014 134.943 271.322 134.593 271.691 134.317C272.061 134.041 272.483 133.845 272.932 133.74C273.381 133.635 273.846 133.625 274.299 133.709C274.753 133.793 275.183 133.97 275.565 134.229C275.946 134.487 276.27 134.822 276.515 135.212C276.761 135.602 276.923 136.039 276.992 136.495C277.06 136.951 277.033 137.416 276.913 137.861C276.793 138.306 276.582 138.721 276.294 139.08C276.442 139.269 276.57 139.473 276.674 139.689L274.298 140.924L276.831 140.072C277.011 140.599 277.056 141.164 276.962 141.713C276.868 142.263 276.638 142.78 276.294 143.219C276.683 143.711 276.925 144.303 276.993 144.927C277.061 145.551 276.952 146.181 276.678 146.746C276.404 147.31 275.977 147.786 275.445 148.12C274.914 148.453 274.299 148.629 273.672 148.629C273.044 148.629 272.429 148.453 271.898 148.12C271.366 147.786 270.939 147.31 270.665 146.746C270.391 146.181 270.282 145.551 270.35 144.927C270.418 144.303 270.66 143.711 271.049 143.219C270.585 142.631 270.333 141.904 270.333 141.155C270.333 140.406 270.585 139.679 271.049 139.091L271.052 139.08Z" fill="#EE6C00"/>
<path opacity="0.1" d="M277.013 141.144C277.013 141.893 276.762 142.62 276.299 143.208C276.688 143.701 276.93 144.293 276.998 144.916C277.066 145.54 276.957 146.17 276.683 146.735C276.41 147.3 275.983 147.776 275.451 148.109C274.919 148.442 274.304 148.619 273.677 148.619C273.049 148.619 272.435 148.442 271.903 148.109C271.371 147.776 270.944 147.3 270.67 146.735C270.397 146.17 270.288 145.54 270.356 144.916C270.423 144.293 270.666 143.701 271.054 143.208C270.603 142.639 277.013 140.769 277.013 141.144Z" fill="black"/>
</g>
<defs>
<linearGradient id="paint0_linear" x1="208.733" y1="182.04" x2="208.733" y2="78.2832" gradientUnits="userSpaceOnUse">
<stop stop-color="#808080" stop-opacity="0.25"/>
<stop offset="0.54" stop-color="#808080" stop-opacity="0.12"/>
<stop offset="1" stop-color="#808080" stop-opacity="0.1"/>
</linearGradient>
<clipPath id="clip0">
<rect width="300" height="183.039" fill="white"/>
</clipPath>
</defs>
</svg>
