<svg width="178" height="154" viewBox="0 0 178 154" fill="none" xmlns="http://www.w3.org/2000/svg">
<g filter="url(#filter0_d)">
<path d="M4 8C4 3.58173 7.58172 0 12 0H166C170.418 0 174 3.58172 174 8V138C174 142.418 170.418 146 166 146H12C7.58172 146 4 142.418 4 138V8Z" fill="white"/>
</g>
<path d="M81.8438 59.3438V49.375C81.8437 49.1346 81.7483 48.9041 81.5783 48.7342C81.4084 48.5642 81.1779 48.4688 80.9375 48.4688H77.3125C77.0721 48.4688 76.8416 48.5642 76.6717 48.7342C76.5017 48.9041 76.4063 49.1346 76.4062 49.375V59.3438H78.2188V50.2812H80.0312V59.3438H81.8438Z" fill="#2015E0"/>
<path d="M96.3438 62.9688V50.2812C96.3437 50.0409 96.2483 49.8104 96.0783 49.6404C95.9084 49.4705 95.6779 49.375 95.4375 49.375H91.8125C91.5721 49.375 91.3416 49.4705 91.1717 49.6404C91.0017 49.8104 90.9063 50.0409 90.9062 50.2812V62.9688H92.7188V51.1875H94.5312V62.9688H96.3438Z" fill="#2015E0"/>
<path d="M89.0938 62.9688V46.6562C89.0937 46.4159 88.9983 46.1854 88.8283 46.0154C88.6584 45.8455 88.4279 45.75 88.1875 45.75H84.5625C84.3221 45.75 84.0916 45.8455 83.9217 46.0154C83.7517 46.1854 83.6563 46.4159 83.6562 46.6562V61.1562H85.4688V47.5625H87.2812V62.9688H89.0938Z" fill="#2015E0"/>
<path d="M103.594 55.7188V46.6562C103.594 46.4159 103.498 46.1854 103.328 46.0154C103.158 45.8455 102.928 45.75 102.688 45.75H99.0625C98.8221 45.75 98.5916 45.8455 98.4217 46.0154C98.2517 46.1854 98.1563 46.4159 98.1562 46.6562V56.625H99.9688V47.5625H101.781V55.7188H103.594Z" fill="#2015E0"/>
<path d="M110.844 54.8125V41.2188C110.844 40.9784 110.748 40.7479 110.578 40.5779C110.408 40.408 110.178 40.3125 109.938 40.3125H106.312C106.072 40.3125 105.842 40.408 105.672 40.5779C105.502 40.7479 105.406 40.9784 105.406 41.2188V54.8125H107.219V42.125H109.031V54.8125H110.844Z" fill="#2015E0"/>
<path d="M76.6717 46.3908C76.8416 46.5607 77.0722 46.6562 77.3125 46.6562C77.5529 46.6562 77.7834 46.5607 77.9534 46.3908L85.4342 38.91L92.9514 47.2625C93.0337 47.3539 93.1338 47.4277 93.2455 47.4792C93.3572 47.5307 93.4783 47.5589 93.6012 47.5622C93.6092 47.5624 93.6171 47.5625 93.625 47.5625C93.8654 47.5625 94.0959 47.467 94.2659 47.2971L106.313 35.2504V37.5938C106.313 37.8341 106.408 38.0646 106.578 38.2346C106.748 38.4045 106.978 38.5 107.219 38.5H110.844C111.084 38.5 111.315 38.4045 111.485 38.2346C111.655 38.0646 111.75 37.8341 111.75 37.5938V26.7188C111.75 26.4784 111.655 26.2479 111.485 26.0779C111.315 25.908 111.084 25.8125 110.844 25.8125H99.9688C99.7284 25.8125 99.4979 25.908 99.328 26.0779C99.158 26.2479 99.0625 26.4784 99.0625 26.7188V30.3438C99.0625 30.5841 99.158 30.8146 99.328 30.9846C99.4979 31.1545 99.7284 31.25 99.9688 31.25H102.312L93.6597 39.9025L86.1424 31.55C86.0601 31.4586 85.96 31.3849 85.8483 31.3333C85.7366 31.2818 85.6156 31.2536 85.4926 31.2503C85.3696 31.2471 85.2472 31.2689 85.133 31.3145C85.0187 31.3601 84.9149 31.4285 84.8279 31.5154L73.9529 42.3904C73.783 42.5604 73.6875 42.7909 73.6875 43.0312C73.6875 43.2716 73.783 43.5021 73.9529 43.6721L76.6717 46.3908ZM85.4342 33.4725L92.9514 41.825C93.0337 41.9164 93.1338 41.9902 93.2455 42.0417C93.3572 42.0932 93.4783 42.1214 93.6012 42.1247C93.7242 42.1279 93.8466 42.1061 93.9608 42.0605C94.0751 42.0149 94.1789 41.9465 94.2659 41.8596L105.141 30.9846C105.268 30.8578 105.354 30.6963 105.389 30.5205C105.424 30.3447 105.406 30.1625 105.337 29.9969C105.269 29.8314 105.153 29.6898 105.003 29.5903C104.854 29.4907 104.679 29.4375 104.5 29.4375H100.875V27.625H109.938V36.6875H108.125V33.0625C108.125 32.8833 108.072 32.708 107.972 32.559C107.873 32.41 107.731 32.2938 107.566 32.2252C107.4 32.1566 107.218 32.1387 107.042 32.1737C106.866 32.2086 106.705 32.2949 106.578 32.4217L93.6597 45.34L86.1424 36.9875C86.0601 36.8961 85.96 36.8223 85.8483 36.7708C85.7366 36.7193 85.6156 36.6911 85.4926 36.6878C85.4846 36.6876 85.4767 36.6875 85.4688 36.6875C85.2284 36.6875 84.9979 36.783 84.8279 36.9529L77.3125 44.4683L75.8754 43.0312L85.4342 33.4725Z" fill="#2015E0"/>
<path d="M70.9688 79.2813V77.4688H73.6875C73.9279 77.4688 74.1584 77.3733 74.3283 77.2033C74.4983 77.0334 74.5938 76.8029 74.5938 76.5625V74.1882C78.9211 78.1603 84.6154 80.3077 90.488 80.1821C96.3607 80.0565 101.958 77.6677 106.112 73.5141L116.016 63.6101C116.615 63.0113 116.974 62.2142 117.026 61.3689C117.078 60.5237 116.819 59.6886 116.297 59.0212C115.776 58.3537 115.029 57.8999 114.196 57.7452C113.364 57.5906 112.503 57.7458 111.777 58.1816C111.468 57.7027 111.047 57.3059 110.551 57.025C110.055 56.7441 109.498 56.5875 108.928 56.5685C108.359 56.5495 107.793 56.6687 107.279 56.9159C106.765 57.1632 106.319 57.5311 105.979 57.9883L105.594 58.5037C105.398 58.353 105.188 58.2213 104.966 58.1105C104.497 57.8761 103.986 57.7388 103.463 57.707C102.94 57.6752 102.415 57.7494 101.922 57.9253C101.428 58.1011 100.975 58.375 100.589 58.7303C100.204 59.0857 99.8947 59.5153 99.6796 59.9933L97.395 65.0701C96.9165 64.8791 96.4059 64.7811 95.8906 64.7813H84.9379L83.3909 63.2342C82.2556 62.1021 80.7803 61.3737 79.1913 61.1606C77.6022 60.9475 75.9872 61.2615 74.5938 62.0545V61.1563C74.5938 60.9159 74.4983 60.6854 74.3283 60.5154C74.1584 60.3455 73.9279 60.25 73.6875 60.25H70.9688V59.3438C70.9688 59.1034 70.8733 58.8729 70.7033 58.7029C70.5334 58.533 70.3029 58.4375 70.0625 58.4375H62.8125V60.25H69.1563V78.375H62.8125V80.1875H70.0625C70.3029 80.1875 70.5334 80.092 70.7033 79.9221C70.8733 79.7521 70.9688 79.5216 70.9688 79.2813ZM109.696 58.6244C110.006 58.8105 110.249 59.0896 110.39 59.422L103.2 66.6126C102.237 67.5765 101.15 68.4077 99.9684 69.0845L107.432 59.0714C107.686 58.7286 108.059 58.4928 108.477 58.4101C108.896 58.3274 109.331 58.4039 109.696 58.6244ZM101.332 60.737C101.447 60.4818 101.612 60.2524 101.818 60.0626C102.024 59.8728 102.266 59.7266 102.53 59.6327C102.793 59.5388 103.073 59.4991 103.353 59.5161C103.632 59.5331 103.905 59.6064 104.156 59.7316C104.281 59.7947 104.4 59.8704 104.511 59.9575L99.4094 66.8017C99.2667 66.5581 99.0993 66.3298 98.9097 66.1206L101.332 60.737ZM82.1092 64.5158L83.9217 66.3283C84.0916 66.4983 84.3221 66.5938 84.5625 66.5938H95.8906C96.4915 66.5938 97.0678 66.8325 97.4927 67.2573C97.9176 67.6822 98.1563 68.2585 98.1563 68.8594C98.1563 69.4603 97.9176 70.0365 97.4927 70.4614C97.0678 70.8863 96.4915 71.125 95.8906 71.125H84.5625V72.9375H95.8906C96.4514 72.9377 97.0062 72.8218 97.52 72.5973C98.0339 72.3728 98.4958 72.0445 98.8767 71.6329C100.974 70.7703 102.879 69.4994 104.481 67.8942L112.391 59.9847C112.702 59.6739 113.123 59.4993 113.563 59.4993C114.002 59.4993 114.424 59.6739 114.734 59.9847C115.045 60.2955 115.22 60.717 115.22 61.1566C115.22 61.5961 115.045 62.0176 114.734 62.3284L104.83 72.2325C100.897 76.1655 95.5622 78.3751 89.9999 78.375C84.4376 78.375 79.1032 76.1653 75.1701 72.2322L74.5938 71.6558V64.2691C75.6446 63.3503 77.005 62.8648 78.4001 62.9106C79.7952 62.9564 81.1208 63.5301 82.1092 64.5158ZM72.7813 62.0625V75.6563H70.9688V62.0625H72.7813Z" fill="#2015E0"/>
<path d="M46.9835 118L46.9695 110.86L43.4275 116.81H42.7835L39.2415 110.902V118H37.8975V108.2H39.0455L43.1335 115.088L47.1655 108.2H48.3135L48.3275 118H46.9835ZM57.7926 115.55H52.5846L51.5066 118H50.0646L54.5026 108.2H55.8886L60.3406 118H58.8706L57.7926 115.55ZM57.3026 114.43L55.1886 109.628L53.0746 114.43H57.3026ZM70.5105 108.2V118H69.3625L63.4825 110.692V118H62.0825V108.2H63.2305L69.1105 115.508V108.2H70.5105ZM79.9678 115.55H74.7598L73.6818 118H72.2398L76.6778 108.2H78.0638L82.5158 118H81.0458L79.9678 115.55ZM79.4778 114.43L77.3638 109.628L75.2498 114.43H79.4778ZM90.911 113.044H92.255V116.866C91.7697 117.267 91.205 117.575 90.561 117.79C89.917 118.005 89.245 118.112 88.545 118.112C87.5557 118.112 86.6643 117.897 85.871 117.468C85.0777 117.029 84.4523 116.432 83.995 115.676C83.547 114.911 83.323 114.052 83.323 113.1C83.323 112.148 83.547 111.289 83.995 110.524C84.4523 109.759 85.0777 109.161 85.871 108.732C86.6737 108.303 87.5743 108.088 88.573 108.088C89.357 108.088 90.0664 108.219 90.701 108.48C91.345 108.732 91.891 109.105 92.339 109.6L91.471 110.468C90.687 109.712 89.7397 109.334 88.629 109.334C87.8823 109.334 87.2103 109.497 86.613 109.824C86.025 110.141 85.563 110.589 85.227 111.168C84.891 111.737 84.723 112.381 84.723 113.1C84.723 113.809 84.891 114.453 85.227 115.032C85.563 115.601 86.025 116.049 86.613 116.376C87.2103 116.703 87.8777 116.866 88.615 116.866C89.4924 116.866 90.2577 116.656 90.911 116.236V113.044ZM102.327 116.782V118H95.2155V108.2H102.131V109.418H96.6155V112.428H101.529V113.618H96.6155V116.782H102.327ZM113.96 118L113.946 110.86L110.404 116.81H109.76L106.218 110.902V118H104.874V108.2H106.022L110.11 115.088L114.142 108.2H115.29L115.304 118H113.96ZM125.637 116.782V118H118.525V108.2H125.441V109.418H119.925V112.428H124.839V113.618H119.925V116.782H125.637ZM136.612 108.2V118H135.464L129.584 110.692V118H128.184V108.2H129.332L135.212 115.508V108.2H136.612ZM141.772 109.418H138.412V108.2H146.518V109.418H143.158V118H141.772V109.418Z" fill="#2015E0"/>
<defs>
<filter id="filter0_d" x="0" y="0" width="178" height="154" filterUnits="userSpaceOnUse" color-interpolation-filters="sRGB">
<feFlood flood-opacity="0" result="BackgroundImageFix"/>
<feColorMatrix in="SourceAlpha" type="matrix" values="0 0 0 0 0 0 0 0 0 0 0 0 0 0 0 0 0 0 127 0"/>
<feOffset dy="4"/>
<feGaussianBlur stdDeviation="2"/>
<feColorMatrix type="matrix" values="0 0 0 0 0 0 0 0 0 0 0 0 0 0 0 0 0 0 0.25 0"/>
<feBlend mode="normal" in2="BackgroundImageFix" result="effect1_dropShadow"/>
<feBlend mode="normal" in="SourceGraphic" in2="effect1_dropShadow" result="shape"/>
</filter>
</defs>
</svg>
