<svg width="178" height="154" viewBox="0 0 178 154" fill="none" xmlns="http://www.w3.org/2000/svg">
<g filter="url(#filter0_d)">
<path d="M4 8C4 3.58173 7.58172 0 12 0H166C170.418 0 174 3.58172 174 8V138C174 142.418 170.418 146 166 146H12C7.58172 146 4 142.418 4 138V8Z" fill="white"/>
</g>
<path d="M107.885 55.1862H99.0432V64.2891H107.885V55.1862ZM104.838 61.2422H102.09V58.233H104.838V61.2422Z" fill="#2015E0"/>
<path d="M87.5176 64.2891H96.3591V49.5774H87.5176V64.2891ZM90.5645 52.6243H93.3122V61.2423H90.5645V52.6243Z" fill="#2015E0"/>
<path d="M76.0452 46.2801V64.2891H84.8867V46.2137H87.9513L80.5309 37.1461L72.9524 46.2801H76.0452ZM79.0921 43.6518L80.5146 41.9373L81.8398 43.5566V61.2422H79.0921V43.6518Z" fill="#2015E0"/>
<path d="M117 34.8382V31.7913H92.5234V28H89.4766V31.7913H65V34.8382H67.4248V67.8252H65V70.8721H81.9075L77.2741 78.1677L79.8461 79.8011L85.5168 70.8721H89.4766V80H92.5234V70.8721H96.4832L102.154 79.8011L104.726 78.1677L100.092 70.8721H117V67.8252H114.575V34.8382H117ZM111.528 67.8252H70.4717V34.8382H111.528V67.8252H111.528Z" fill="#2015E0"/>
<path d="M99.7931 38.0327H108.199V41.0796H99.7931V38.0327Z" fill="#2015E0"/>
<path d="M99.7931 44.1268H108.199V47.1737H99.7931V44.1268Z" fill="#2015E0"/>
<path d="M55.8772 115.55H50.6692L49.5912 118H48.1492L52.5872 108.2H53.9732L58.4252 118H56.9552L55.8772 115.55ZM55.3872 114.43L53.2732 109.628L51.1592 114.43H55.3872ZM68.5951 108.2V118H67.4471L61.5671 110.692V118H60.1671V108.2H61.3151L67.1951 115.508V108.2H68.5951ZM78.0524 115.55H72.8444L71.7664 118H70.3244L74.7624 108.2H76.1484L80.6004 118H79.1304L78.0524 115.55ZM77.5624 114.43L75.4484 109.628L73.3344 114.43H77.5624ZM82.3423 108.2H83.7423V116.782H89.0483V118H82.3423V108.2ZM93.6615 114.612V118H92.2755V114.584L88.3835 108.2H89.8815L93.0175 113.366L96.1675 108.2H97.5535L93.6615 114.612ZM101.091 109.418H97.7305V108.2H105.837V109.418H102.477V118H101.091V109.418ZM107.641 108.2H109.041V118H107.641V108.2ZM116.637 118.112C115.657 118.112 114.771 117.897 113.977 117.468C113.193 117.029 112.577 116.432 112.129 115.676C111.681 114.911 111.457 114.052 111.457 113.1C111.457 112.148 111.681 111.294 112.129 110.538C112.577 109.773 113.198 109.175 113.991 108.746C114.785 108.307 115.671 108.088 116.651 108.088C117.417 108.088 118.117 108.219 118.751 108.48C119.386 108.732 119.927 109.11 120.375 109.614L119.465 110.496C118.728 109.721 117.809 109.334 116.707 109.334C115.979 109.334 115.321 109.497 114.733 109.824C114.145 110.151 113.683 110.603 113.347 111.182C113.021 111.751 112.857 112.391 112.857 113.1C112.857 113.809 113.021 114.453 113.347 115.032C113.683 115.601 114.145 116.049 114.733 116.376C115.321 116.703 115.979 116.866 116.707 116.866C117.799 116.866 118.719 116.474 119.465 115.69L120.375 116.572C119.927 117.076 119.381 117.459 118.737 117.72C118.103 117.981 117.403 118.112 116.637 118.112ZM125.467 118.112C124.73 118.112 124.016 118 123.325 117.776C122.644 117.543 122.107 117.244 121.715 116.88L122.233 115.788C122.607 116.124 123.083 116.399 123.661 116.614C124.249 116.819 124.851 116.922 125.467 116.922C126.279 116.922 126.886 116.787 127.287 116.516C127.689 116.236 127.889 115.867 127.889 115.41C127.889 115.074 127.777 114.803 127.553 114.598C127.339 114.383 127.068 114.22 126.741 114.108C126.424 113.996 125.971 113.87 125.383 113.73C124.646 113.553 124.049 113.375 123.591 113.198C123.143 113.021 122.756 112.75 122.429 112.386C122.112 112.013 121.953 111.513 121.953 110.888C121.953 110.365 122.089 109.894 122.359 109.474C122.639 109.054 123.059 108.718 123.619 108.466C124.179 108.214 124.875 108.088 125.705 108.088C126.284 108.088 126.853 108.163 127.413 108.312C127.973 108.461 128.454 108.676 128.855 108.956L128.393 110.076C127.983 109.815 127.544 109.619 127.077 109.488C126.611 109.348 126.153 109.278 125.705 109.278C124.912 109.278 124.315 109.423 123.913 109.712C123.521 110.001 123.325 110.375 123.325 110.832C123.325 111.168 123.437 111.443 123.661 111.658C123.885 111.863 124.161 112.027 124.487 112.148C124.823 112.26 125.276 112.381 125.845 112.512C126.583 112.689 127.175 112.867 127.623 113.044C128.071 113.221 128.454 113.492 128.771 113.856C129.098 114.22 129.261 114.71 129.261 115.326C129.261 115.839 129.121 116.311 128.841 116.74C128.561 117.16 128.137 117.496 127.567 117.748C126.998 117.991 126.298 118.112 125.467 118.112Z" fill="#2015E0"/>
<defs>
<filter id="filter0_d" x="0" y="0" width="178" height="154" filterUnits="userSpaceOnUse" color-interpolation-filters="sRGB">
<feFlood flood-opacity="0" result="BackgroundImageFix"/>
<feColorMatrix in="SourceAlpha" type="matrix" values="0 0 0 0 0 0 0 0 0 0 0 0 0 0 0 0 0 0 127 0"/>
<feOffset dy="4"/>
<feGaussianBlur stdDeviation="2"/>
<feColorMatrix type="matrix" values="0 0 0 0 0 0 0 0 0 0 0 0 0 0 0 0 0 0 0.25 0"/>
<feBlend mode="normal" in2="BackgroundImageFix" result="effect1_dropShadow"/>
<feBlend mode="normal" in="SourceGraphic" in2="effect1_dropShadow" result="shape"/>
</filter>
</defs>
</svg>
