<svg width="178" height="154" viewBox="0 0 178 154" fill="none" xmlns="http://www.w3.org/2000/svg">
<g filter="url(#filter0_d)">
<path d="M4 8C4 3.58173 7.58172 0 12 0H166C170.418 0 174 3.58172 174 8V138C174 142.418 170.418 146 166 146H12C7.58172 146 4 142.418 4 138V8Z" fill="white"/>
</g>
<path d="M66.3226 74.6774H68.0968V76.4516H66.3226V74.6774Z" fill="#2015E0"/>
<path d="M69.871 74.6774H71.6452V76.4516H69.871V74.6774Z" fill="#2015E0"/>
<path d="M73.4194 74.6774H75.1936V76.4516H73.4194V74.6774Z" fill="#2015E0"/>
<path d="M103.581 74.6774H110.677V76.4516H103.581V74.6774Z" fill="#2015E0"/>
<path d="M114.226 71.129V41.8548C114.226 39.4093 112.236 37.4194 109.79 37.4194H107.129C107.129 30.5708 101.558 25 94.7097 25C87.8611 25 82.2903 30.5708 82.2903 37.4194H67.2097C64.7641 37.4194 62.7742 39.4093 62.7742 41.8548V71.129H61V75.5645C61 78.0101 62.9899 80 65.4355 80H111.565C114.01 80 116 78.0101 116 75.5645V71.129H114.226ZM109.79 39.1935C111.257 39.1935 112.452 40.3878 112.452 41.8548V71.129H110.677V42.7419C110.677 41.7634 109.882 40.9677 108.903 40.9677H106.606C106.777 40.3929 106.9 39.7995 106.987 39.1935H109.79ZM84.58 34.1594L93.9954 38.0829L97.2194 47.7531C96.4128 47.9493 95.5756 48.0645 94.7097 48.0645C88.8396 48.0645 84.0645 43.2894 84.0645 37.4194C84.0645 36.2819 84.2482 35.1873 84.58 34.1594ZM98.9048 47.1995L95.7246 37.6589L102.83 30.553C104.402 32.4082 105.355 34.8031 105.355 37.4194C105.355 41.7998 102.694 45.5683 98.9048 47.1995ZM94.7097 26.7742C97.3259 26.7742 99.7208 27.7271 101.577 29.2982L94.5031 36.3716L85.2674 32.5243C87.0424 29.1128 90.6051 26.7742 94.7097 26.7742ZM64.5484 41.8548C64.5484 40.3878 65.7426 39.1935 67.2097 39.1935H82.4324C82.519 39.7995 82.6416 40.3929 82.8136 40.9677H68.0968C67.1183 40.9677 66.3226 41.7634 66.3226 42.7419V71.129H64.5484V41.8548ZM114.226 75.5645C114.226 77.0316 113.032 78.2258 111.565 78.2258H65.4355C63.9684 78.2258 62.7742 77.0316 62.7742 75.5645V72.9032H81.0502C82.3258 74.0502 83.958 74.6774 85.6871 74.6774H91.3138C93.0429 74.6774 94.675 74.0502 95.9507 72.9032H107.129V71.129H95.2295L94.9696 71.3889C93.9928 72.3657 92.6951 72.9032 91.3129 72.9032H85.6862C84.3049 72.9032 83.0063 72.3657 82.0296 71.3889L81.7705 71.129H68.0968V42.7419H83.5057C85.5043 46.931 89.7678 49.8387 94.7097 49.8387C99.6515 49.8387 103.915 46.931 105.914 42.7419H108.903V72.9032H114.226V75.5645Z" fill="#2015E0"/>
<path d="M104.468 62.258C103.923 62.258 103.416 62.4239 102.994 62.7059L99.8993 60.3855C99.9781 60.1343 100.032 59.8726 100.032 59.5967C100.032 58.1296 98.8381 56.9354 97.371 56.9354C95.9039 56.9354 94.7097 58.1296 94.7097 59.5967C94.7097 59.9021 94.7716 60.191 94.8665 60.4643L89.8982 64.4394C89.4911 64.1855 89.0146 64.0322 88.5 64.0322C87.9031 64.0322 87.3573 64.2371 86.9129 64.5697L83.0878 62.0193C83.141 61.811 83.1774 61.5962 83.1774 61.3709C83.1774 59.9038 81.9832 58.7096 80.5161 58.7096C79.049 58.7096 77.8548 59.9038 77.8548 61.3709C77.8548 61.5962 77.8912 61.811 77.9445 62.0193L74.1193 64.5697C73.6749 64.2362 73.1291 64.0322 72.5323 64.0322C71.0652 64.0322 69.871 65.2264 69.871 66.6935C69.871 68.1606 71.0652 69.3548 72.5323 69.3548C73.9994 69.3548 75.1936 68.1606 75.1936 66.6935C75.1936 66.4683 75.1572 66.2534 75.1039 66.0451L78.9291 63.4947C79.3735 63.8282 79.9192 64.0322 80.5161 64.0322C81.113 64.0322 81.6588 63.8282 82.1032 63.4947L85.9284 66.0451C85.8751 66.2534 85.8387 66.4691 85.8387 66.6935C85.8387 68.1606 87.0329 69.3548 88.5 69.3548C89.9671 69.3548 91.1613 68.1606 91.1613 66.6935C91.1613 66.3881 91.0994 66.0992 91.0045 65.8259L95.9728 61.8508C96.3799 62.1047 96.8564 62.258 97.371 62.258C97.9154 62.258 98.4222 62.0921 98.8446 61.8101L101.939 64.1305C101.861 64.3818 101.806 64.6434 101.806 64.9193C101.806 66.3864 103.001 67.5806 104.468 67.5806C105.935 67.5806 107.129 66.3864 107.129 64.9193C107.129 63.4522 105.935 62.258 104.468 62.258ZM72.5323 67.5806C72.0437 67.5806 71.6452 67.1821 71.6452 66.6935C71.6452 66.2049 72.0437 65.8064 72.5323 65.8064C73.0209 65.8064 73.4194 66.2049 73.4194 66.6935C73.4194 67.1821 73.0209 67.5806 72.5323 67.5806ZM80.5161 62.258C80.0275 62.258 79.629 61.8595 79.629 61.3709C79.629 60.8823 80.0275 60.4838 80.5161 60.4838C81.0047 60.4838 81.4032 60.8823 81.4032 61.3709C81.4032 61.8595 81.0047 62.258 80.5161 62.258ZM88.5 67.5806C88.0114 67.5806 87.6129 67.1821 87.6129 66.6935C87.6129 66.2049 88.0114 65.8064 88.5 65.8064C88.9886 65.8064 89.3871 66.2049 89.3871 66.6935C89.3871 67.1821 88.9886 67.5806 88.5 67.5806ZM97.371 60.4838C96.8824 60.4838 96.4839 60.0853 96.4839 59.5967C96.4839 59.1081 96.8824 58.7096 97.371 58.7096C97.8596 58.7096 98.2581 59.1081 98.2581 59.5967C98.2581 60.0853 97.8596 60.4838 97.371 60.4838ZM104.468 65.8064C103.979 65.8064 103.581 65.4079 103.581 64.9193C103.581 64.4307 103.979 64.0322 104.468 64.0322C104.956 64.0322 105.355 64.4307 105.355 64.9193C105.355 65.4079 104.956 65.8064 104.468 65.8064Z" fill="#2015E0"/>
<path d="M84.0645 44.5161H69.871V56.9355H84.0645V44.5161ZM82.2903 55.1613H71.6452V46.2903H82.2903V55.1613Z" fill="#2015E0"/>
<path d="M73.4194 48.0646H80.5161V49.8388H73.4194V48.0646Z" fill="#2015E0"/>
<path d="M73.4194 51.6129H80.5161V53.3871H73.4194V51.6129Z" fill="#2015E0"/>
<path d="M85.8387 53.3871H87.6129V55.1613H85.8387V53.3871Z" fill="#2015E0"/>
<path d="M89.3871 53.3871H107.129V55.1613H89.3871V53.3871Z" fill="#2015E0"/>
<path d="M52.9536 118L52.9396 110.86L49.3976 116.81H48.7536L45.2116 110.902V118H43.8676V108.2H45.0156L49.1036 115.088L53.1356 108.2H54.2836L54.2976 118H52.9536ZM63.7627 115.55H58.5547L57.4767 118H56.0347L60.4727 108.2H61.8587L66.3107 118H64.8407L63.7627 115.55ZM63.2727 114.43L61.1587 109.628L59.0447 114.43H63.2727ZM74.6046 118L72.4906 114.99C72.2292 115.009 72.0239 115.018 71.8746 115.018H69.4526V118H68.0526V108.2H71.8746C73.1439 108.2 74.1426 108.503 74.8706 109.11C75.5986 109.717 75.9626 110.552 75.9626 111.616C75.9626 112.372 75.7759 113.016 75.4026 113.548C75.0292 114.08 74.4972 114.467 73.8066 114.71L76.1306 118H74.6046ZM71.8326 113.828C72.7192 113.828 73.3959 113.637 73.8626 113.254C74.3292 112.871 74.5626 112.325 74.5626 111.616C74.5626 110.907 74.3292 110.365 73.8626 109.992C73.3959 109.609 72.7192 109.418 71.8326 109.418H69.4526V113.828H71.8326ZM81.6965 113.646L79.9045 115.466V118H78.5045V108.2H79.9045V113.674L85.2245 108.2H86.8205L82.6345 112.61L87.0865 118H85.4485L81.6965 113.646ZM95.959 116.782V118H88.847V108.2H95.763V109.418H90.247V112.428H95.161V113.618H90.247V116.782H95.959ZM100.452 109.418H97.0919V108.2H105.198V109.418H101.838V118H100.452V109.418ZM107.003 108.2H108.403V118H107.003V108.2ZM120.045 108.2V118H118.897L113.017 110.692V118H111.617V108.2H112.765L118.645 115.508V108.2H120.045ZM130.048 113.044H131.392V116.866C130.907 117.267 130.342 117.575 129.698 117.79C129.054 118.005 128.382 118.112 127.682 118.112C126.693 118.112 125.801 117.897 125.008 117.468C124.215 117.029 123.589 116.432 123.132 115.676C122.684 114.911 122.46 114.052 122.46 113.1C122.46 112.148 122.684 111.289 123.132 110.524C123.589 109.759 124.215 109.161 125.008 108.732C125.811 108.303 126.711 108.088 127.71 108.088C128.494 108.088 129.203 108.219 129.838 108.48C130.482 108.732 131.028 109.105 131.476 109.6L130.608 110.468C129.824 109.712 128.877 109.334 127.766 109.334C127.019 109.334 126.347 109.497 125.75 109.824C125.162 110.141 124.7 110.589 124.364 111.168C124.028 111.737 123.86 112.381 123.86 113.1C123.86 113.809 124.028 114.453 124.364 115.032C124.7 115.601 125.162 116.049 125.75 116.376C126.347 116.703 127.015 116.866 127.752 116.866C128.629 116.866 129.395 116.656 130.048 116.236V113.044Z" fill="#2015E0"/>
<defs>
<filter id="filter0_d" x="0" y="0" width="178" height="154" filterUnits="userSpaceOnUse" color-interpolation-filters="sRGB">
<feFlood flood-opacity="0" result="BackgroundImageFix"/>
<feColorMatrix in="SourceAlpha" type="matrix" values="0 0 0 0 0 0 0 0 0 0 0 0 0 0 0 0 0 0 127 0"/>
<feOffset dy="4"/>
<feGaussianBlur stdDeviation="2"/>
<feColorMatrix type="matrix" values="0 0 0 0 0 0 0 0 0 0 0 0 0 0 0 0 0 0 0.25 0"/>
<feBlend mode="normal" in2="BackgroundImageFix" result="effect1_dropShadow"/>
<feBlend mode="normal" in="SourceGraphic" in2="effect1_dropShadow" result="shape"/>
</filter>
</defs>
</svg>
