<svg width="100" height="100" viewBox="0 0 100 100" fill="none" xmlns="http://www.w3.org/2000/svg">
<path d="M0 13.7931H100V82.7586H0V13.7931Z" fill="#D1E7F8"/>
<path d="M55.1724 89.6552V100H89.6551V89.6552H55.1724Z" fill="#005ECE"/>
<path d="M0 0H100V13.7931H0V0Z" fill="#006DF0"/>
<path d="M10.3448 24.1379V41.3793H27.5862V24.1379H10.3448Z" fill="#D80027"/>
<path d="M10.3448 51.7241V68.9655H27.5862V51.7241H10.3448Z" fill="#D80027"/>
<path d="M44.8276 82.7586H100V34.4827C100 54.4947 68.6516 82.7586 44.8276 82.7586Z" fill="#BCD0DF"/>
<path d="M58.6208 89.6552H86.1708L86.1935 86.5521C86.2019 85.2068 86.6044 83.8935 87.3502 82.7738L88.4969 81.0496C89.252 79.9165 89.6553 78.5847 89.6553 77.2225V63.2434C89.6561 59.6554 86.9066 56.6667 83.3312 56.3687L68.9656 55.1724V39.6552C68.9656 37.7509 67.4216 36.2069 65.5173 36.2069C63.613 36.2069 62.069 37.7509 62.069 39.6552V63.4623C62.069 64.2427 61.5446 64.9254 60.7911 65.1275C60.0376 65.3295 59.2421 64.9995 58.8514 64.3243L55.1725 57.9497C54.5815 56.8351 53.4281 56.1313 52.1662 56.117C50.9042 56.1018 49.7349 56.7779 49.1178 57.8782C48.5007 58.9793 48.5344 60.3297 49.2054 61.398L55.1725 77.7066L57.028 81.2205C57.2873 81.7189 57.5179 82.2325 57.7175 82.7586C58.3135 84.3237 58.6199 85.9838 58.6208 87.6583V89.6552Z" fill="#FFDAAA"/>
<path d="M5.17242 5.17242H8.6207V8.6207H5.17242V5.17242Z" fill="#F1F2F2"/>
<path d="M12.069 5.17242H15.5172V8.6207H12.069V5.17242Z" fill="#F1F2F2"/>
<path d="M18.9655 5.17242H22.4138V8.6207H18.9655V5.17242Z" fill="#F1F2F2"/>
<path d="M50 22.4138H56.8965V25.8621H50V22.4138Z" fill="#2488FF"/>
<path d="M60.3448 22.4138H91.3793V25.8621H60.3448V22.4138Z" fill="#2488FF"/>
<path d="M50 29.3104H91.3793V32.7586H50V29.3104Z" fill="#2488FF"/>
<path d="M50 37.931H56.8965V41.3793H50V37.931Z" fill="#2488FF"/>
<path d="M74.1379 37.931H91.3793V41.3793H74.1379V37.931Z" fill="#2488FF"/>
<path d="M74.1379 44.8276H91.3793V48.2759H74.1379V44.8276Z" fill="#2488FF"/>
<path d="M50 44.8276H56.8965V48.2759H50V44.8276Z" fill="#2488FF"/>
<path d="M18.8123 38.5119L12.564 32.3377L14.986 29.8845L18.979 33.8312L31.7071 22.9324L33.9481 25.5531L18.8123 38.5119Z" fill="#2B3990"/>
<path d="M18.8123 66.0981L12.564 59.9239L14.986 57.4707L18.979 61.4173L31.7071 50.5186L33.9481 53.1393L18.8123 66.0981Z" fill="#2B3990"/>
</svg>
