<svg width="26" height="27" viewBox="0 0 26 27" fill="none" xmlns="http://www.w3.org/2000/svg">
<g clip-path="url(#clip0)">
<path d="M24.9927 12.1878C24.3513 11.6473 23.3947 11.7263 22.8511 12.368L19.372 15.944H19.3755C19.1873 15.2972 18.5899 14.8248 17.8827 14.8248H12.1205C11.3728 14.4979 10.5462 14.3162 9.67741 14.3162C7.27032 14.3162 5.18879 15.4831 4.19482 17.6942L8.79435 22.2703L8.8029 22.2635L9.59493 21.4995C9.97395 21.1334 10.4806 20.9289 11.0075 20.9289H17.7867C18.8423 20.9289 19.8563 20.5171 20.613 19.7807L25.1729 14.3291C25.7143 13.6885 25.6339 12.7298 24.9927 12.1878Z" fill="#FED2A4"/>
<path d="M20.2577 6.07575C20.2577 8.88511 17.9804 11.1624 15.171 11.1624C12.3617 11.1624 10.0844 8.88511 10.0844 6.07575C10.0844 3.26658 12.3617 0.989075 15.171 0.989075C17.9804 0.989075 20.2577 3.26658 20.2577 6.07575Z" fill="#FFE781"/>
<path d="M8.69625 23.5958L6.23271 26.0227L0.521362 20.2677L2.94117 17.8407C3.33828 17.4436 3.98284 17.4434 4.38014 17.8407L8.69625 22.1568C9.09594 22.5565 9.09117 23.2008 8.69625 23.5958Z" fill="#0168B5"/>
<path d="M11.9972 18.1496C12.1958 17.9506 12.1958 17.6286 11.9972 17.4297C11.7985 17.2313 11.4765 17.2313 11.2776 17.4297C11.0792 17.6286 11.0792 17.9506 11.2776 18.1496C11.4765 18.3479 11.7985 18.3479 11.9972 18.1496Z" fill="black"/>
<path d="M9.58838 6.07575C9.58838 9.16098 12.0984 11.6712 15.1837 11.6712C18.2689 11.6712 20.7789 9.16098 20.7789 6.07575C20.7789 2.99051 18.2689 0.480469 15.1837 0.480469C12.0984 0.480469 9.58838 2.99051 9.58838 6.07575ZM19.7617 6.07575C19.7617 8.6001 17.708 10.6538 15.1837 10.6538C12.6593 10.6538 10.6056 8.6001 10.6056 6.07575C10.6056 3.55159 12.6593 1.49788 15.1837 1.49788C17.708 1.49788 19.7617 3.55159 19.7617 6.07575Z" fill="black"/>
<path d="M5.88449 26.3809C6.08165 26.5797 6.40264 26.5818 6.60238 26.3851L9.0685 23.9555C9.48747 23.5366 9.61487 22.9163 9.43063 22.377L9.9611 21.8654C10.2467 21.5896 10.6227 21.4375 11.0203 21.4375H17.7824C18.9821 21.4375 20.116 20.9768 20.9756 20.1403C21.0109 20.1059 20.7071 20.4638 25.5888 14.6293C26.3129 13.7726 26.2045 12.4863 25.3471 11.7615C24.4951 11.0434 23.2187 11.1465 22.4926 11.9884L19.4911 15.0735C19.1121 14.607 18.5341 14.3162 17.9096 14.3162H12.2374C11.4303 13.9786 10.5739 13.8076 9.6902 13.8076C7.24077 13.8076 5.102 14.9389 3.9542 17.06C3.47064 16.9684 2.96064 17.1147 2.59374 17.4816L0.173931 19.9085C-0.0236285 20.1067 -0.024026 20.4273 0.173136 20.626L5.88449 26.3809ZM9.69 14.8248C10.4691 14.8248 11.2224 14.9817 11.9293 15.2909C11.9937 15.3191 12.0631 15.3336 12.1333 15.3336H17.9096C18.4611 15.3336 18.927 15.7834 18.927 16.3509C18.927 16.9119 18.4707 17.3683 17.9096 17.3683H13.7595C13.4786 17.3683 13.2509 17.596 13.2509 17.8769C13.2509 18.1579 13.4786 18.3855 13.7595 18.3855H17.9096C19.0316 18.3855 19.9442 17.4728 19.9442 16.3509C19.9442 16.2614 19.9379 16.1728 19.9264 16.0849C22.8299 13.1003 23.2394 12.6809 23.2568 12.66C23.6194 12.2321 24.2629 12.1779 24.691 12.5388C25.1196 12.9011 25.1738 13.5443 24.8103 13.9746L20.2479 19.4287C19.5817 20.0683 18.707 20.4203 17.7824 20.4203H11.0203C10.3576 20.4203 9.73035 20.6737 9.25453 21.1334L8.82225 21.5506L4.83726 17.5658C5.76862 15.8186 7.51625 14.8248 9.69 14.8248ZM3.31362 18.2005C3.48137 18.0327 3.73896 18.0025 3.94347 18.1289C4.03152 18.1826 3.7787 17.9524 8.34922 22.5166C8.55254 22.7199 8.54161 23.0438 8.352 23.2335L6.2496 25.3047L1.25157 20.2685L3.31362 18.2005Z" fill="black"/>
<path d="M14.5606 3.0396V3.61996C13.9686 3.82984 13.5432 4.39529 13.5432 5.05853C13.5432 5.89687 14.2228 6.57958 15.0601 6.58435C15.3189 6.58594 15.5457 6.77714 15.5747 7.03433C15.6093 7.341 15.3692 7.60177 15.0693 7.60177C14.8546 7.60177 14.6231 7.4684 14.4163 7.22612C14.2544 7.03592 13.9763 6.97729 13.7619 7.10528C13.4846 7.27084 13.4313 7.63516 13.6301 7.87167C13.902 8.19504 14.2218 8.42043 14.5606 8.53411V9.11189C14.5606 9.36669 14.7415 9.59466 14.9937 9.63103C15.3082 9.67615 15.5779 9.43347 15.5779 9.12779V8.53153C16.1699 8.32165 16.5953 7.7562 16.5953 7.09296C16.5953 6.25462 15.9157 5.57211 15.0784 5.56714C14.8196 5.56555 14.5928 5.37435 14.5638 5.11716C14.5292 4.81049 14.7693 4.54972 15.0693 4.54972C15.2453 4.54972 15.4312 4.63757 15.6073 4.80413C15.7899 4.97645 16.0714 5.01083 16.2731 4.86117C16.5331 4.66858 16.5494 4.29969 16.327 4.08444C16.0688 3.83461 15.8104 3.6933 15.5779 3.61618V3.0239C15.5779 2.71802 15.3082 2.47534 14.9937 2.52066C14.7415 2.55683 14.5606 2.7848 14.5606 3.0396Z" fill="black"/>
</g>
<defs>
<clipPath id="clip0">
<rect width="26" height="26.0509" fill="white" transform="translate(0 0.480469)"/>
</clipPath>
</defs>
</svg>
