<svg width="26" height="26" viewBox="0 0 26 26" fill="none" xmlns="http://www.w3.org/2000/svg">
<path d="M10.1652 1H2.61684C1.72511 1 1 1.72569 1 2.61738V10.1652C1 11.0569 1.72569 11.7826 2.61738 11.7826H10.1652C11.0569 11.7826 11.7826 11.0569 11.7826 10.1652V2.61738C11.7826 1.72569 11.0569 1 10.1652 1ZM10.7044 10.1652C10.7044 10.4623 10.4623 10.7043 10.1652 10.7043H2.61738C2.32031 10.7043 2.07827 10.4622 2.07827 10.1652V2.61738C2.07827 2.32031 2.31978 2.07827 2.61684 2.07827H10.1652C10.4623 2.07827 10.7043 2.32036 10.7043 2.61738V10.1652H10.7044Z" fill="#0F75BC" stroke="#0F75BC" stroke-width="0.5"/>
<path d="M23.3825 1H15.8347C14.9429 1 14.2173 1.72569 14.2173 2.61738V10.1652C14.2173 11.0569 14.943 11.7826 15.8347 11.7826H23.3825C24.2742 11.7826 24.9999 11.0569 24.9999 10.1652V2.61738C24.9999 1.72569 24.2742 1 23.3825 1ZM23.9216 10.1652C23.9216 10.4623 23.6801 10.7043 23.3825 10.7043H15.8347C15.5371 10.7043 15.2956 10.4622 15.2956 10.1652V2.61738C15.2956 2.32031 15.5371 2.07827 15.8347 2.07827H23.3825C23.6801 2.07827 23.9216 2.32036 23.9216 2.61738V10.1652Z" fill="#0F75BC" stroke="#0F75BC" stroke-width="0.5"/>
<path d="M10.1652 14.2174H2.61684C1.72511 14.2174 1 14.9431 1 15.8348V23.3827C1 24.2743 1.72569 25 2.61738 25H10.1652C11.0569 25 11.7826 24.2743 11.7826 23.3827V15.8348C11.7826 14.9431 11.0569 14.2174 10.1652 14.2174ZM10.7044 23.3827C10.7044 23.6803 10.4623 23.9218 10.1652 23.9218H2.61738C2.32031 23.9218 2.07827 23.6803 2.07827 23.3827V15.8348C2.07827 15.5372 2.31978 15.2957 2.61684 15.2957H10.1652C10.4623 15.2957 10.7043 15.5372 10.7043 15.8348V23.3827H10.7044Z" fill="#0F75BC" stroke="#0F75BC" stroke-width="0.5"/>
<path d="M23.3825 14.2174H15.8347C14.9429 14.2174 14.2173 14.9431 14.2173 15.8348V23.3826C14.2173 24.2743 14.943 25 15.8347 25H23.3825C24.2742 25 24.9999 24.2743 24.9999 23.3826V15.8348C24.9999 14.9431 24.2742 14.2174 23.3825 14.2174ZM23.9216 23.3827C23.9216 23.6803 23.6801 23.9218 23.3825 23.9218H15.8347C15.5371 23.9218 15.2956 23.6803 15.2956 23.3827V15.8348C15.2956 15.5372 15.5371 15.2957 15.8347 15.2957H23.3825C23.6801 15.2957 23.9216 15.5372 23.9216 15.8348V23.3827Z" fill="#0F75BC" stroke="#0F75BC" stroke-width="0.5"/>
</svg>
