<svg width="211" height="213" viewBox="0 0 211 213" fill="none" xmlns="http://www.w3.org/2000/svg">
<path d="M106.634 75.8692H27.4015C25.6921 75.8692 24.3066 77.2551 24.3066 78.9641C24.3066 80.6735 25.6921 82.0589 27.4015 82.0589H106.634C108.343 82.0589 109.729 80.6731 109.729 78.9641C109.729 77.2551 108.343 75.8692 106.634 75.8692Z" fill="white" stroke="white" stroke-width="0.4"/>
<path d="M106.634 97.6171H27.4015C25.6921 97.6171 24.3066 99.0029 24.3066 100.712C24.3066 102.421 25.6921 103.807 27.4015 103.807H106.634C108.343 103.807 109.729 102.421 109.729 100.712C109.729 99.0029 108.343 97.6171 106.634 97.6171Z" fill="white" stroke="white" stroke-width="0.4"/>
<path d="M106.634 119.364H27.4015C25.6921 119.364 24.3066 120.75 24.3066 122.459C24.3066 124.168 25.6921 125.554 27.4015 125.554H106.634C108.343 125.554 109.729 124.168 109.729 122.459C109.729 120.75 108.343 119.364 106.634 119.364Z" fill="white" stroke="white" stroke-width="0.4"/>
<path d="M109.729 144.207C109.729 142.498 108.343 141.113 106.634 141.113H27.4015C25.6921 141.113 24.3066 142.498 24.3066 144.207C24.3066 145.916 25.6921 147.302 27.4015 147.302H106.634C108.343 147.302 109.729 145.917 109.729 144.207Z" fill="white" stroke="white" stroke-width="0.4"/>
<path d="M27.4015 172.984C25.6921 172.984 24.3066 174.37 24.3066 176.079C24.3066 177.788 25.6921 179.173 27.4015 179.173H67.119C68.8284 179.173 70.2138 177.788 70.2138 176.079C70.2138 174.37 68.8284 172.984 67.119 172.984H27.4015Z" fill="white" stroke="white" stroke-width="0.4"/>
<path d="M142.31 39.2821V29.2395C142.31 25.4137 139.198 22.3011 135.372 22.3011H71.8295C68.0038 22.3011 64.8916 25.4137 64.8916 29.2395V39.2821C64.8916 43.1079 68.0038 46.22 71.8295 46.22H77.1955C78.9049 46.22 80.2903 44.8342 80.2903 43.1252C80.2903 41.4158 78.9049 40.0304 77.1955 40.0304H71.8295C71.4172 40.0304 71.0817 39.6948 71.0817 39.2825V29.2395C71.0817 28.8272 71.4172 28.4912 71.8295 28.4912H135.372C135.785 28.4912 136.12 28.8268 136.12 29.2395V39.2821C136.12 39.6944 135.785 40.0299 135.372 40.0299H91.6648C89.9554 40.0299 88.5699 41.4158 88.5699 43.1248C88.5699 44.8342 89.9554 46.2196 91.6648 46.2196H135.372C139.198 46.2205 142.31 43.1079 142.31 39.2821Z" fill="white" stroke="white" stroke-width="0.4"/>
<path d="M165.451 189.688C163.741 189.688 162.356 191.074 162.356 192.783V196.951C162.356 201.981 158.263 206.074 153.232 206.074H16.3133C11.2829 206.074 7.18969 201.982 7.18969 196.951V48.186C7.18969 47.5162 7.2681 46.8592 7.40801 46.2199H35.5885C41.4719 46.2199 46.2585 41.4334 46.2585 35.55V7.36991C46.8977 7.23 47.5543 7.15159 48.2241 7.15159H153.231C158.262 7.15159 162.355 11.2443 162.355 16.2752V57.4801C162.355 59.1895 163.741 60.5749 165.45 60.5749C167.16 60.5749 168.545 59.1891 168.545 57.4801V16.2748C168.545 7.83131 161.676 0.961487 153.232 0.961487H48.2246C44.1343 0.961487 40.2883 2.55451 37.3961 5.44672L5.48482 37.358C2.59261 40.2502 1 44.0958 1 48.1865V196.951C1 205.395 7.86941 212.264 16.3133 212.264H153.232C161.676 212.264 168.545 205.395 168.545 196.951V192.783C168.545 191.074 167.16 189.688 165.451 189.688ZM40.0688 11.5283V35.55C40.0688 38.0204 38.0589 40.0302 35.5885 40.0302H11.5668L40.0688 11.5283Z" fill="white" stroke="white" stroke-width="0.4"/>
<path d="M207.846 111.565C210.019 108.376 210.581 104.443 209.389 100.773C208.196 97.1033 205.429 94.2516 201.797 92.9491C199.388 92.0849 197.781 89.8728 197.704 87.3141C197.587 83.4574 195.729 79.9445 192.607 77.6763C189.486 75.4085 185.57 74.7279 181.868 75.8084C179.409 76.5257 176.81 75.6804 175.243 73.6561C172.882 70.6042 169.315 68.854 165.456 68.854C161.598 68.854 158.03 70.6042 155.668 73.6561C154.102 75.6809 151.501 76.5248 149.045 75.8084C145.341 74.7271 141.426 75.4085 138.304 77.6763C135.182 79.9445 133.326 83.457 133.208 87.3137C133.131 89.8724 131.524 92.0841 129.114 92.9487C125.483 94.2512 122.716 97.1033 121.524 100.773C120.331 104.442 120.893 108.376 123.066 111.565C124.507 113.681 124.507 116.414 123.066 118.53C120.893 121.719 120.331 125.652 121.524 129.322C122.716 132.992 125.483 135.844 129.114 137.146C131.524 138.011 133.132 140.223 133.208 142.782C133.316 146.329 134.942 149.662 137.67 151.926C139.47 153.42 141.632 154.355 143.895 154.667V182.846C143.895 185.223 145.184 187.421 147.26 188.58C149.333 189.739 151.881 189.687 153.907 188.439L165.258 181.452C165.443 181.337 165.554 181.389 165.655 181.452L177.006 188.439C179.031 189.686 181.579 189.739 183.654 188.58C185.73 187.42 187.019 185.222 187.019 182.845V154.666C189.281 154.354 191.443 153.42 193.243 151.926C195.971 149.662 197.597 146.329 197.705 142.781C197.782 140.222 199.389 138.01 201.799 137.146C205.431 135.844 208.198 132.991 209.39 129.322C210.582 125.652 210.02 121.718 207.848 118.53C206.405 116.415 206.405 113.681 207.846 111.565V111.565ZM180.25 183.168L168.899 176.181C166.789 174.882 164.125 174.88 162.013 176.181L150.662 183.168C150.403 183.325 150.084 183.144 150.084 182.845V154.08C152.212 153.833 154.322 154.699 155.668 156.439C158.03 159.491 161.598 161.241 165.457 161.241C169.315 161.241 172.882 159.491 175.243 156.439C176.59 154.699 178.701 153.833 180.828 154.08V182.845C180.828 183.146 180.505 183.326 180.25 183.168V183.168ZM202.731 122.016C203.817 123.61 204.098 125.576 203.502 127.41C202.906 129.244 201.523 130.669 199.707 131.32C194.886 133.05 191.671 137.475 191.517 142.595C191.462 144.394 190.671 146.017 189.289 147.163C187.736 148.452 185.633 148.938 183.602 148.346C178.685 146.911 173.482 148.601 170.347 152.652C169.168 154.177 167.384 155.052 165.456 155.052C163.528 155.052 161.744 154.177 160.564 152.652C158.17 149.558 154.571 147.841 150.814 147.841C149.651 147.841 148.473 148.006 147.31 148.345C145.259 148.943 143.162 148.442 141.622 147.163C140.24 146.016 139.449 144.394 139.395 142.595C139.24 137.475 136.025 133.05 131.204 131.32C129.389 130.669 128.006 129.244 127.41 127.41C126.814 125.576 127.094 123.609 128.181 122.016C131.064 117.783 131.064 112.313 128.181 108.08C127.094 106.486 126.814 104.52 127.41 102.686C128.006 100.851 129.389 99.426 131.204 98.7752C136.025 97.0456 139.24 92.6202 139.395 87.5006C139.453 85.5729 140.381 83.8173 141.942 82.684C143.501 81.5503 145.457 81.2102 147.31 81.75C152.225 83.185 157.429 81.4942 160.564 77.4439C161.744 75.9186 163.527 75.0436 165.456 75.0436C167.384 75.0436 169.167 75.9182 170.347 77.4435C173.482 81.4942 178.684 83.1846 183.601 81.75C185.453 81.2094 187.409 81.5499 188.969 82.6836C190.53 83.8168 191.458 85.5729 191.516 87.5002C191.671 92.6198 194.886 97.0456 199.707 98.7748C201.523 99.4256 202.905 100.851 203.502 102.685C204.098 104.519 203.817 106.486 202.731 108.079C199.847 112.313 199.847 117.783 202.731 122.016V122.016Z" fill="white" stroke="white" stroke-width="0.4"/>
<path d="M165.439 89.1074C151.136 89.1074 139.499 100.744 139.499 115.047C139.499 129.351 151.136 140.987 165.439 140.987C179.742 140.987 191.378 129.351 191.378 115.047C191.378 100.744 179.742 89.1074 165.439 89.1074V89.1074ZM165.439 134.797C154.549 134.797 145.689 125.938 145.689 115.048C145.689 104.158 154.549 95.2975 165.439 95.2975C176.329 95.2975 185.189 104.157 185.189 115.048C185.189 125.938 176.329 134.797 165.439 134.797Z" fill="white" stroke="white" stroke-width="0.4"/>
</svg>
